wave.vcd
$date
	Sat Dec 04 20:32:33 2021
$end
$version
	Icarus Verilog
$end
$timescale
	1ps
$end
$scope module tb_axi_sha256 $end
$var wire 1 ! s_axi_aclk $end
$var wire 1 " s_axi_aresetn $end
$var wire 1 # s_axi_wready $end
$var wire 1 $ s_axi_rvalid $end
$var wire 2 % s_axi_rresp [1:0] $end
$var wire 32 & s_axi_rdata [31:0] $end
$var wire 1 ' s_axi_bvalid $end
$var wire 2 ( s_axi_bresp [1:0] $end
$var wire 1 ) s_axi_awready $end
$var wire 1 * s_axi_arready $end
$var wire 1 + irq_hash_finish $end
$var reg 1 , aclk $end
$var reg 1 " aresetn $end
$var reg 8 - s_axi_araddr [7:0] $end
$var reg 1 . s_axi_arvalid $end
$var reg 8 / s_axi_awaddr [7:0] $end
$var reg 1 0 s_axi_awvalid $end
$var reg 1 1 s_axi_bready $end
$var reg 1 2 s_axi_rready $end
$var reg 32 3 s_axi_wdata [31:0] $end
$var reg 4 4 s_axi_wstrb [3:0] $end
$var reg 1 5 s_axi_wvalid $end
$scope module sha256_v1_0_S00_AXI_inst $end
$var wire 1 ! S_AXI_ACLK $end
$var wire 8 6 S_AXI_ARADDR [7:0] $end
$var wire 1 " S_AXI_ARESETN $end
$var wire 3 7 S_AXI_ARPROT [2:0] $end
$var wire 1 * S_AXI_ARREADY $end
$var wire 1 . S_AXI_ARVALID $end
$var wire 8 8 S_AXI_AWADDR [7:0] $end
$var wire 3 9 S_AXI_AWPROT [2:0] $end
$var wire 1 ) S_AXI_AWREADY $end
$var wire 1 0 S_AXI_AWVALID $end
$var wire 1 1 S_AXI_BREADY $end
$var wire 2 : S_AXI_BRESP [1:0] $end
$var wire 1 ' S_AXI_BVALID $end
$var wire 32 ; S_AXI_RDATA [31:0] $end
$var wire 1 2 S_AXI_RREADY $end
$var wire 2 < S_AXI_RRESP [1:0] $end
$var wire 1 $ S_AXI_RVALID $end
$var wire 32 = S_AXI_WDATA [31:0] $end
$var wire 1 # S_AXI_WREADY $end
$var wire 4 > S_AXI_WSTRB [3:0] $end
$var wire 1 5 S_AXI_WVALID $end
$var wire 32 ? dat_lsb_i [31:0] $end
$var wire 1 @ dat_vaild_i $end
$var wire 1 + irq_hash_finish $end
$var wire 1 A rst_n $end
$var wire 1 B slv_reg_rden $end
$var wire 1 C slv_reg_wren $end
$var wire 32 D slv_reg0_nxt [31:0] $end
$var wire 1 E irq_finish $end
$var wire 1 F hash_busy_o $end
$var wire 32 G hash7 [31:0] $end
$var wire 32 H hash6 [31:0] $end
$var wire 32 I hash5 [31:0] $end
$var wire 32 J hash4 [31:0] $end
$var wire 32 K hash3 [31:0] $end
$var wire 32 L hash2 [31:0] $end
$var wire 32 M hash1 [31:0] $end
$var wire 32 N hash0 [31:0] $end
$var wire 1 O dat_addr_vaild $end
$var reg 1 P aw_en $end
$var reg 8 Q axi_araddr [7:0] $end
$var reg 1 R axi_arready $end
$var reg 8 S axi_awaddr [7:0] $end
$var reg 1 T axi_awready $end
$var reg 2 U axi_bresp [1:0] $end
$var reg 1 V axi_bvalid $end
$var reg 32 W axi_rdata [31:0] $end
$var reg 2 X axi_rresp [1:0] $end
$var reg 1 Y axi_rvalid $end
$var reg 1 Z axi_wready $end
$var reg 32 [ reg_data_out [31:0] $end
$var reg 32 \ slv_reg0 [31:0] $end
$var reg 32 ] slv_reg1 [31:0] $end
$var reg 32 ^ slv_reg2 [31:0] $end
$var reg 32 _ slv_reg3 [31:0] $end
$var integer 32 ` byte_index [31:0] $end
$scope module sha256_inst $end
$var wire 1 a chunk_clr $end
$var wire 1 ! clk $end
$var wire 32 b dat_lsb_i [31:0] $end
$var wire 1 @ dat_vaild_i $end
$var wire 1 F hash_busy_o $end
$var wire 1 A rst_n $end
$var wire 32 c w_out [31:0] $end
$var wire 1 d state_is_proc $end
$var wire 32 e k_out [31:0] $end
$var wire 6 f k_addr [5:0] $end
$var wire 32 g hash7 [31:0] $end
$var wire 32 h hash6 [31:0] $end
$var wire 32 i hash5 [31:0] $end
$var wire 32 j hash4 [31:0] $end
$var wire 32 k hash3 [31:0] $end
$var wire 32 l hash2 [31:0] $end
$var wire 32 m hash1 [31:0] $end
$var wire 32 n hash0 [31:0] $end
$var wire 32 o dat_msb_i [31:0] $end
$var wire 1 p chunk_compress_update $end
$var reg 8 q counter [7:0] $end
$var reg 1 E irq_finish $end
$var reg 2 r state [1:0] $end
$var reg 2 s state_next [1:0] $end
$scope module sha256_chunk_compress_u2 $end
$var wire 32 t a [31:0] $end
$var wire 32 u b [31:0] $end
$var wire 32 v c [31:0] $end
$var wire 32 w ch [31:0] $end
$var wire 1 ! clk $end
$var wire 32 x d [31:0] $end
$var wire 32 y e [31:0] $end
$var wire 1 d enable $end
$var wire 32 z f [31:0] $end
$var wire 32 { g [31:0] $end
$var wire 32 | h [31:0] $end
$var wire 1 } h8_update $end
$var wire 32 ~ maj [31:0] $end
$var wire 1 !" pipeline_stop_n $end
$var wire 1 A rst_n $end
$var wire 32 "" s0 [31:0] $end
$var wire 32 #" s1 [31:0] $end
$var wire 1 p update $end
$var wire 32 $" w_in [31:0] $end
$var wire 32 %" tmp2 [31:0] $end
$var wire 32 &" tmp1 [31:0] $end
$var wire 32 '" k_in [31:0] $end
$var wire 32 (" hash7 [31:0] $end
$var wire 32 )" hash6 [31:0] $end
$var wire 32 *" hash5 [31:0] $end
$var wire 32 +" hash4 [31:0] $end
$var wire 32 ," hash3 [31:0] $end
$var wire 32 -" hash2 [31:0] $end
$var wire 32 ." hash1 [31:0] $end
$var wire 32 /" hash0 [31:0] $end
$var wire 32 0" e_rr6 [31:0] $end
$var wire 32 1" e_rr25 [31:0] $end
$var wire 32 2" e_rr11 [31:0] $end
$var wire 32 3" a_rr22 [31:0] $end
$var wire 32 4" a_rr2 [31:0] $end
$var wire 32 5" a_rr13 [31:0] $end
$scope function lsb_to_msb $end
$var reg 32 6" lsb [31:0] $end
$upscope $end
$scope begin chunk_compress_pipe[1] $end
$upscope $end
$scope begin chunk_compress_pipe[2] $end
$upscope $end
$scope begin chunk_compress_pipe[3] $end
$upscope $end
$upscope $end
$scope module sha256_chunk_process_u0 $end
$var wire 1 a clear $end
$var wire 1 ! clk $end
$var wire 32 7" dat_msb_i [31:0] $end
$var wire 1 @ dat_vaild_i $end
$var wire 1 8" enable $end
$var wire 1 d proc_ninit $end
$var wire 1 A rst_n $end
$var wire 32 9" w_m15 [31:0] $end
$var wire 32 :" w_m16 [31:0] $end
$var wire 32 ;" w_m2 [31:0] $end
$var wire 32 <" w_m7 [31:0] $end
$var wire 32 =" w_out [31:0] $end
$var wire 32 >" w_new [31:0] $end
$var wire 32 ?" w_m2_rr19 [31:0] $end
$var wire 32 @" w_m2_rr17 [31:0] $end
$var wire 32 A" w_m2_r10 [31:0] $end
$var wire 32 B" w_m15_rr7 [31:0] $end
$var wire 32 C" w_m15_rr18 [31:0] $end
$var wire 32 D" w_m15_r3 [31:0] $end
$var wire 32 E" w_in [31:0] $end
$var reg 32 F" s0 [31:0] $end
$var reg 32 G" s1 [31:0] $end
$scope begin chunk_proc_pipeline[0] $end
$upscope $end
$scope begin chunk_proc_pipeline[1] $end
$upscope $end
$scope begin chunk_proc_pipeline[2] $end
$upscope $end
$scope begin chunk_proc_pipeline[3] $end
$upscope $end
$scope begin chunk_proc_pipeline[4] $end
$upscope $end
$scope begin chunk_proc_pipeline[5] $end
$upscope $end
$scope begin chunk_proc_pipeline[6] $end
$upscope $end
$scope begin chunk_proc_pipeline[7] $end
$upscope $end
$scope begin chunk_proc_pipeline[8] $end
$upscope $end
$scope begin chunk_proc_pipeline[9] $end
$upscope $end
$scope begin chunk_proc_pipeline[10] $end
$upscope $end
$scope begin chunk_proc_pipeline[11] $end
$upscope $end
$scope begin chunk_proc_pipeline[12] $end
$upscope $end
$scope begin chunk_proc_pipeline[13] $end
$upscope $end
$scope begin chunk_proc_pipeline[14] $end
$upscope $end
$upscope $end
$scope module sha256_k_u1 $end
$var wire 6 H" addr [5:0] $end
$var wire 1 d enable $end
$var wire 32 I" k_o [31:0] $end
$upscope $end
$upscope $end
$upscope $end
$scope task axil_read $end
$var reg 30 J" addr [29:0] $end
$var reg 32 K" temp_addr [31:0] $end
$var reg 32 L" value [31:0] $end
$upscope $end
$scope task axil_wait $end
$var integer 32 M" n [31:0] $end
$upscope $end
$scope task axil_write $end
$var reg 30 N" addr [29:0] $end
$var reg 32 O" data [31:0] $end
$var reg 32 P" temp_addr [31:0] $end
$var integer 32 Q" awready_ok [31:0] $end
$var integer 32 R" wready_ok [31:0] $end
$upscope $end
$scope task dump_sha256_result $end
$upscope $end
$upscope $end
$enddefinitions $end
#0
$dumpvars
bx R"
bx Q"
bx P"
bx O"
bx N"
b11 M"
bx L"
bx K"
bx J"
b0 I"
b110000 H"
b0 G"
b0 F"
b0 E"
b0 D"
b0 C"
b0 B"
b0 A"
b0 @"
b0 ?"
b0 >"
b0 ="
b0 <"
b0 ;"
b0 :"
b0 9"
08"
b0 7"
b1011011111000001100110100011001 6"
bx 5"
bx 4"
bx 3"
bx 2"
bx 1"
bx 0"
b1100111111001100000100101101010 /"
b10000101101011100110011110111011 ."
b1110010111100110110111000111100 -"
b111010111101010100111110100101 ,"
b1111111010100100000111001010001 +"
b10001100011010000000010110011011 *"
b10101011110110011000001100011111 )"
b11001110011011110000001011011 ("
b0 '"
bx &"
bx %"
b0 $"
bx #"
bx ""
0!"
bx ~
0}
bx |
bx {
bx z
bx y
bx x
bx w
bx v
bx u
bx t
b0 s
b0 r
b0 q
0p
b0 o
b1100111111001100000100101101010 n
b10000101101011100110011110111011 m
b1110010111100110110111000111100 l
b111010111101010100111110100101 k
b1111111010100100000111001010001 j
b10001100011010000000010110011011 i
b10101011110110011000001100011111 h
b11001110011011110000001011011 g
b110000 f
b0 e
0d
b0 c
b0 b
1a
bx `
bx _
bx ^
bx ]
bx \
b0 [
xZ
xY
bx X
bx W
xV
bx U
xT
bx S
xR
bx Q
xP
xO
b1100111111001100000100101101010 N
b10000101101011100110011110111011 M
b1110010111100110110111000111100 L
b111010111101010100111110100101 K
b1111111010100100000111001010001 J
b10001100011010000000010110011011 I
b10101011110110011000001100011111 H
b11001110011011110000001011011 G
0F
0E
b0x0 D
0C
0B
0A
0@
b0 ?
b0 >
b0 =
bx <
bx ;
bx :
b0 9
b0 8
b0 7
b0 6
05
b0 4
b0 3
02
01
00
b0 /
0.
b0 -
0,
0+
x*
x)
bx (
x'
bx &
bx %
x$
x#
0"
0!
$end
#5000
b10110000111011011011110111010000 &"
b110101100001110010011100101011 #"
b1000100100001001101011100101 %"
b11001110001000001011010001111110 ""
b111010011011111110011001100111 ~
b11111100001011100100110001100 w
b1011011111000001100110100011001 6"
b11111101010001000011100101001001 0"
b1001111111010100010000111001010 2"
b10000111001010010011111110101000 1"
b11011010100000100111100110011001 4"
b110011001110110101000001001111 5"
b100111100110011001110110101000 3"
0O
b0 D
b1010001000011100101001001111111 y
b1101010000010011110011001100111 t
b1011011111000001100110100011001 |
b10100101010011111111010100111010 x
b11111100000111101100110101011 {
b111100011011101111001101110010 v
b10011011000001010110100010001100 z
b10111011011001111010111010000101 u
1P
0)
0T
b0 S
0#
0Z
b0 _
b0 ^
b0 ]
b0 \
b0 (
b0 :
b0 U
0'
0V
b0 Q
0*
0R
b0 %
b0 <
b0 X
0$
0Y
b0 &
b0 ;
b0 W
1!
1,
#10000
0!
0,
#15000
b1011011111000001100110100011001 6"
1!
1,
#20000
0!
0,
#25000
b1011011111000001100110100011001 6"
1A
1"
1!
1,
#30000
0!
0,
#35000
b1011011111000001100110100011001 6"
1!
1,
#40000
0!
0,
#45000
b1011011111000001100110100011001 6"
1!
1,
#50000
0!
0,
#55000
b1011011111000001100110100011001 6"
b11000000000000000000000000 E"
b11000000000000000000000000 o
b11000000000000000000000000 7"
b1 M"
11
b1111 4
b1111 >
b11 ?
b11 b
b11 3
b11 =
15
b0 P"
10
b0 R"
b0 Q"
b11 O"
b0 N"
1!
1,
#60000
0!
0,
#65000
1C
b1011011111000001100110100011001 6"
0P
1)
1T
1#
1Z
1!
1,
#70000
0!
0,
#75000
b11 [
0A
b1011011111000001100110100011001 6"
b10 D
1'
1V
b11 \
0#
0Z
0)
0T
b0 E"
b0 o
b0 7"
0C
b0 4
b0 >
b0 ?
b0 b
b0 3
b0 =
05
b1 R"
00
b1 Q"
b100 `
1!
1,
#80000
0!
0,
#85000
b10 [
1A
b1011011111000001100110100011001 6"
1P
b10 \
0'
0V
01
1!
1,
#90000
0!
0,
#95000
b1011011111000001100110100011001 6"
b1100010001110010011010001100100 E"
b1100010001110010011010001100100 o
b1100010001110010011010001100100 7"
11
b1111 4
b1111 >
b1100100001101000011100101100010 ?
b1100100001101000011100101100010 b
b1100100001101000011100101100010 3
b1100100001101000011100101100010 =
15
b1000000 P"
b1000000 /
b1000000 8
10
b0 R"
b0 Q"
b1100100001101000011100101100010 O"
b10000 N"
1!
1,
#100000
0!
0,
#105000
0a
18"
b1 s
1@
1C
b1011011111000001100110100011001 6"
1O
0P
1)
1T
b1000000 S
1#
1Z
1!
1,
#110000
0!
0,
#115000
b110001 f
b110001 H"
b1011011111000001100110100011001 6"
b10011010001100100011000100011100 @"
b100110100011001000110001000111 ?"
b110001000111001001101 A"
b1 r
b1 q
b1100010001110010011010001100100 ;"
1'
1V
0#
0Z
0)
0T
0a
08"
b1 s
b0 E"
0@
b0 o
b0 7"
0C
b0 4
b0 >
b0 ?
b0 b
b0 3
b0 =
05
b1 R"
b0 /
b0 8
00
b1 Q"
1!
1,
#120000
0!
0,
#125000
b1011011111000001100110100011001 6"
1P
0'
0V
01
1!
1,
#130000
0!
0,
#135000
b1011011111000001100110100011001 6"
b110010001101110110001000111001 E"
b110010001101110110001000111001 o
b110010001101110110001000111001 7"
11
b1111 4
b1111 >
b111001011000100011011100110010 ?
b111001011000100011011100110010 b
b111001011000100011011100110010 3
b111001011000100011011100110010 =
15
b1000000 /
b1000000 8
10
b0 R"
b0 Q"
b111001011000100011011100110010 O"
1!
1,
#140000
0!
0,
#145000
18"
1@
1C
b1011011111000001100110100011001 6"
0P
1)
1T
1#
1Z
1!
1,
#150000
0!
0,
#155000
b110010 f
b110010 H"
b1011011111000001100110100011001 6"
b10110001000111001001100100011011 @"
b11101100010001110010011001000110 ?"
b11001000110111011000 A"
b10 q
b110010001101110110001000111001 ;"
b10111100101001100011001100010110 >"
b10111100101001100011001100010110 G"
1'
1V
0#
0Z
0)
0T
08"
b0 E"
0@
b0 o
b0 7"
0C
b0 4
b0 >
b0 ?
b0 b
b0 3
b0 =
05
b1 R"
b0 /
b0 8
00
b1 Q"
1!
1,
#160000
0!
0,
#165000
b1011011111000001100110100011001 6"
1P
0'
0V
01
1!
1,
#170000
0!
0,
#175000
b1011011111000001100110100011001 6"
b111001001100110011010001100100 E"
b111001001100110011010001100100 o
b111001001100110011010001100100 7"
11
b1111 4
b1111 >
b1100100001101000011001100111001 ?
b1100100001101000011001100111001 b
b1100100001101000011001100111001 3
b1100100001101000011001100111001 =
15
b1000000 /
b1000000 8
10
b0 R"
b0 Q"
b1100100001101000011001100111001 O"
1!
1,
#180000
0!
0,
#185000
18"
1@
1C
b1011011111000001100110100011001 6"
0P
1)
1T
1#
1Z
1!
1,
#190000
0!
0,
#195000
b110011 f
b110011 H"
b1011011111000001100110100011001 6"
b10011010001100100001110010011001 @"
b1100110100011001000011100100110 ?"
b11100100110011001101 A"
b11 q
b111001001100110011010001100100 ;"
b1011101010101110011001010000101 >"
b1011101010101110011001010000101 G"
1'
1V
0#
0Z
0)
0T
08"
b0 E"
0@
b0 o
b0 7"
0C
b0 4
b0 >
b0 ?
b0 b
b0 3
b0 =
05
b1 R"
b0 /
b0 8
00
b1 Q"
1!
1,
#200000
0!
0,
#205000
b1011011111000001100110100011001 6"
1P
0'
0V
01
1!
1,
#210000
0!
0,
#215000
b1011011111000001100110100011001 6"
b110011011001010011000000111000 E"
b110011011001010011000000111000 o
b110011011001010011000000111000 7"
11
b1111 4
b1111 >
b111000001100000110010100110011 ?
b111000001100000110010100110011 b
b111000001100000110010100110011 3
b111000001100000110010100110011 =
15
b1000000 /
b1000000 8
10
b0 R"
b0 Q"
b111000001100000110010100110011 O"
1!
1,
#220000
0!
0,
#225000
18"
1@
1C
b1011011111000001100110100011001 6"
0P
1)
1T
1#
1Z
1!
1,
#230000
0!
0,
#235000
b110100 f
b110100 H"
b1011011111000001100110100011001 6"
b10011000000111000001100110110010 @"
b10100110000001110000011001101100 ?"
b11001101100101001100 A"
b100 q
b110011011001010011000000111000 ;"
b11111100101100001101011101110010 >"
b11111100101100001101011101110010 G"
1'
1V
0#
0Z
0)
0T
08"
b0 E"
0@
b0 o
b0 7"
0C
b0 4
b0 >
b0 ?
b0 b
b0 3
b0 =
05
b1 R"
b0 /
b0 8
00
b1 Q"
1!
1,
#240000
0!
0,
#245000
b1011011111000001100110100011001 6"
1P
0'
0V
01
1!
1,
#250000
0!
0,
#255000
b1011011111000001100110100011001 6"
b1100001001101010011001001100101 E"
b1100001001101010011001001100101 o
b1100001001101010011001001100101 7"
11
b1111 4
b1111 >
b1100101001100100011010101100001 ?
b1100101001100100011010101100001 b
b1100101001100100011010101100001 3
b1100101001100100011010101100001 =
15
b1000000 /
b1000000 8
10
b0 R"
b0 Q"
b1100101001100100011010101100001 O"
1!
1,
#260000
0!
0,
#265000
18"
1@
1C
b1011011111000001100110100011001 6"
0P
1)
1T
1#
1Z
1!
1,
#270000
0!
0,
#275000
b110101 f
b110101 H"
b1011011111000001100110100011001 6"
b10011001001100101011000010011010 @"
b10100110010011001010110000100110 ?"
b110000100110101001100 A"
b101 q
b1100001001101010011001001100101 ;"
b111110000101111100011010010010 >"
b111110000101111100011010010010 G"
1'
1V
0#
0Z
0)
0T
08"
b0 E"
0@
b0 o
b0 7"
0C
b0 4
b0 >
b0 ?
b0 b
b0 3
b0 =
05
b1 R"
b0 /
b0 8
00
b1 Q"
1!
1,
#280000
0!
0,
#285000
b1011011111000001100110100011001 6"
1P
0'
0V
01
1!
1,
#290000
0!
0,
#295000
b1011011111000001100110100011001 6"
b110101001100100110010000110111 E"
b110101001100100110010000110111 o
b110101001100100110010000110111 7"
11
b1111 4
b1111 >
b110111011001000011001000110101 ?
b110111011001000011001000110101 b
b110111011001000011001000110101 3
b110111011001000011001000110101 =
15
b1000000 /
b1000000 8
10
b0 R"
b0 Q"
b110111011001000011001000110101 O"
1!
1,
#300000
0!
0,
#305000
18"
1@
1C
b1011011111000001100110100011001 6"
0P
1)
1T
1#
1Z
1!
1,
#310000
0!
0,
#315000
b110110 f
b110110 H"
b1011011111000001100110100011001 6"
b110010000110111001101010011001 @"
b1001100100001101110011010100110 ?"
b11010100110010011001 A"
b110 q
b110101001100100110010000110111 ;"
b111111011001100101000111110000 >"
b111111011001100101000111110000 G"
1'
1V
0#
0Z
0)
0T
08"
b0 E"
0@
b0 o
b0 7"
0C
b0 4
b0 >
b0 ?
b0 b
b0 3
b0 =
05
b1 R"
b0 /
b0 8
00
b1 Q"
1!
1,
#320000
0!
0,
#325000
b1011011111000001100110100011001 6"
1P
0'
0V
01
1!
1,
#330000
0!
0,
#335000
b1011011111000001100110100011001 6"
b1100100011000010011011101100100 E"
b1100100011000010011011101100100 o
b1100100011000010011011101100100 7"
11
b1111 4
b1111 >
b1100100001101110110000101100100 ?
b1100100001101110110000101100100 b
b1100100001101110110000101100100 3
b1100100001101110110000101100100 =
15
b1000000 /
b1000000 8
10
b0 R"
b0 Q"
b1100100001101110110000101100100 O"
1!
1,
#340000
0!
0,
#345000
18"
1@
1C
b1011011111000001100110100011001 6"
0P
1)
1T
1#
1Z
1!
1,
#350000
0!
0,
#355000
b110111 f
b110111 H"
b1011011111000001100110100011001 6"
b10011011101100100011001000110000 @"
b100110111011001000110010001100 ?"
b110010001100001001101 A"
b111 q
b1100100011000010011011101100100 ;"
b1111110100100000011000010100110 G"
b11100000110010010110010100001010 >"
b1100010001110010011010001100100 <"
1'
1V
0#
0Z
0)
0T
08"
b0 E"
0@
b0 o
b0 7"
0C
b0 4
b0 >
b0 ?
b0 b
b0 3
b0 =
05
b1 R"
b0 /
b0 8
00
b1 Q"
1!
1,
#360000
0!
0,
#365000
b1011011111000001100110100011001 6"
1P
0'
0V
01
1!
1,
#370000
0!
0,
#375000
b1011011111000001100110100011001 6"
b1100001011000100110011001100001 E"
b1100001011000100110011001100001 o
b1100001011000100110011001100001 7"
11
b1111 4
b1111 >
b1100001011001100110001001100001 ?
b1100001011001100110001001100001 b
b1100001011001100110001001100001 3
b1100001011001100110001001100001 =
15
b1000000 /
b1000000 8
10
b0 R"
b0 Q"
b1100001011001100110001001100001 O"
1!
1,
#380000
0!
0,
#385000
18"
1@
1C
b1011011111000001100110100011001 6"
0P
1)
1T
1#
1Z
1!
1,
#390000
0!
0,
#395000
b111000 f
b111000 H"
b1011011111000001100110100011001 6"
b110011001100001011000010110001 @"
b1001100110011000010110000101100 ?"
b110000101100010011001 A"
b1000 q
b1100001011000100110011001100001 ;"
b10111101010001111010011011110001 G"
b11101111011111110000100100101010 >"
b110010001101110110001000111001 <"
1'
1V
0#
0Z
0)
0T
08"
b0 E"
0@
b0 o
b0 7"
0C
b0 4
b0 >
b0 ?
b0 b
b0 3
b0 =
05
b1 R"
b0 /
b0 8
00
b1 Q"
1!
1,
#400000
0!
0,
#405000
b1011011111000001100110100011001 6"
1P
0'
0V
01
1!
1,
#410000
0!
0,
#415000
b1011011111000001100110100011001 6"
b1100011001101000011100000110100 E"
b1100011001101000011100000110100 o
b1100011001101000011100000110100 7"
11
b1111 4
b1111 >
b110100001110000011010001100011 ?
b110100001110000011010001100011 b
b110100001110000011010001100011 3
b110100001110000011010001100011 =
15
b1000000 /
b1000000 8
10
b0 R"
b0 Q"
b110100001110000011010001100011 O"
1!
1,
#420000
0!
0,
#425000
18"
1@
1C
b1011011111000001100110100011001 6"
0P
1)
1T
1#
1Z
1!
1,
#430000
0!
0,
#435000
b111001 f
b111001 H"
b1011011111000001100110100011001 6"
b11100000110100011000110011010 @"
b10000111000001101000110001100110 ?"
b110001100110100001110 A"
b1001 q
b1100011001101000011100000110100 ;"
b1111111111001001100010000000100 G"
b10111001000101111111100001101000 >"
b111001001100110011010001100100 <"
1'
1V
0#
0Z
0)
0T
08"
b0 E"
0@
b0 o
b0 7"
0C
b0 4
b0 >
b0 ?
b0 b
b0 3
b0 =
05
b1 R"
b0 /
b0 8
00
b1 Q"
1!
1,
#440000
0!
0,
#445000
b1011011111000001100110100011001 6"
1P
0'
0V
01
1!
1,
#450000
0!
0,
#455000
b1011011111000001100110100011001 6"
b1100101011001100110010100110011 E"
b1100101011001100110010100110011 o
b1100101011001100110010100110011 7"
11
b1111 4
b1111 >
b110011011001010110011001100101 ?
b110011011001010110011001100101 b
b110011011001010110011001100101 3
b110011011001010110011001100101 =
15
b1000000 /
b1000000 8
10
b0 R"
b0 Q"
b110011011001010110011001100101 O"
1!
1,
#460000
0!
0,
#465000
18"
1@
1C
b1011011111000001100110100011001 6"
0P
1)
1T
1#
1Z
1!
1,
#470000
0!
0,
#475000
b111010 f
b111010 H"
b1011011111000001100110100011001 6"
b110010100110011011001010110011 @"
b11001100101001100110110010101100 ?"
b110010101100110011001 A"
b1010 q
b1100101011001100110010100110011 ;"
b10011011000001000111000011110010 G"
b11001110011010011010000100101010 >"
b110011011001010011000000111000 <"
1'
1V
0#
0Z
0)
0T
08"
b0 E"
0@
b0 o
b0 7"
0C
b0 4
b0 >
b0 ?
b0 b
b0 3
b0 =
05
b1 R"
b0 /
b0 8
00
b1 Q"
1!
1,
#480000
0!
0,
#485000
b1011011111000001100110100011001 6"
1P
0'
0V
01
1!
1,
#490000
0!
0,
#495000
b1011011111000001100110100011001 6"
b110111011000010011010100110011 E"
b110111011000010011010100110011 o
b110111011000010011010100110011 7"
11
b1111 4
b1111 >
b110011001101010110000100110111 ?
b110011001101010110000100110111 b
b110011001101010110000100110111 3
b110011001101010110000100110111 =
15
b1000000 /
b1000000 8
10
b0 R"
b0 Q"
b110011001101010110000100110111 O"
1!
1,
#500000
0!
0,
#505000
18"
1@
1C
b1011011111000001100110100011001 6"
0P
1)
1T
1#
1Z
1!
1,
#510000
0!
0,
#515000
b111011 f
b111011 H"
b1011011111000001100110100011001 6"
b10011010100110011001101110110000 @"
b100110101001100110011011101100 ?"
b11011101100001001101 A"
b1011 q
b110111011000010011010100110011 ;"
b11111110001001101000011110000110 G"
b1011111010110111011100111101011 >"
b1100001001101010011001001100101 <"
1'
1V
0#
0Z
0)
0T
08"
b0 E"
0@
b0 o
b0 7"
0C
b0 4
b0 >
b0 ?
b0 b
b0 3
b0 =
05
b1 R"
b0 /
b0 8
00
b1 Q"
1!
1,
#520000
0!
0,
#525000
b1011011111000001100110100011001 6"
1P
0'
0V
01
1!
1,
#530000
0!
0,
#535000
b1011011111000001100110100011001 6"
b111000001100000110010101100101 E"
b111000001100000110010101100101 o
b111000001100000110010101100101 7"
11
b1111 4
b1111 >
b1100101011001010011000000111000 ?
b1100101011001010011000000111000 b
b1100101011001010011000000111000 3
b1100101011001010011000000111000 =
15
b1000000 /
b1000000 8
10
b0 R"
b0 Q"
b1100101011001010011000000111000 O"
1!
1,
#540000
0!
0,
#545000
18"
1@
1C
b1011011111000001100110100011001 6"
0P
1)
1T
1#
1Z
1!
1,
#550000
0!
0,
#555000
b111100 f
b111100 H"
b1011011111000001100110100011001 6"
b110010101100101001110000011000 @"
b1100101011001010011100000110 ?"
b11100000110000011001 A"
b1100 q
b111000001100000110010101100101 ;"
b10111100001100100010010100010001 G"
b11110001011001001000100101001000 >"
b110101001100100110010000110111 <"
1'
1V
0#
0Z
0)
0T
08"
b0 E"
0@
b0 o
b0 7"
0C
b0 4
b0 >
b0 ?
b0 b
b0 3
b0 =
05
b1 R"
b0 /
b0 8
00
b1 Q"
1!
1,
#560000
0!
0,
#565000
b1011011111000001100110100011001 6"
1P
0'
0V
01
1!
1,
#570000
0!
0,
#575000
b1011011111000001100110100011001 6"
b111001001100000011100000111000 E"
b111001001100000011100000111000 o
b111001001100000011100000111000 7"
11
b1111 4
b1111 >
b111000001110000011000000111001 ?
b111000001110000011000000111001 b
b111000001110000011000000111001 3
b111000001110000011000000111001 =
15
b1000000 /
b1000000 8
10
b0 R"
b0 Q"
b111000001110000011000000111001 O"
1!
1,
#580000
0!
0,
#585000
18"
1@
1C
b1011011111000001100110100011001 6"
0P
1)
1T
1#
1Z
1!
1,
#590000
0!
0,
#595000
b111101 f
b111101 H"
b1011011111000001100110100011001 6"
b11100000111000001110010011000 @"
b111000001110000011100100110 ?"
b11100100110000001110 A"
b1101 q
b111001001100000011100000111000 ;"
b111110000100000011011100000111 G"
b10100010011100010110111001101011 >"
b1100100011000010011011101100100 <"
1'
1V
0#
0Z
0)
0T
08"
b0 E"
0@
b0 o
b0 7"
0C
b0 4
b0 >
b0 ?
b0 b
b0 3
b0 =
05
b1 R"
b0 /
b0 8
00
b1 Q"
1!
1,
#600000
0!
0,
#605000
b1011011111000001100110100011001 6"
1P
0'
0V
01
1!
1,
#610000
0!
0,
#615000
b1011011111000001100110100011001 6"
b1100110001101110110000101100011 E"
b1100110001101110110000101100011 o
b1100110001101110110000101100011 7"
11
b1111 4
b1111 >
b1100011011000010011011101100110 ?
b1100011011000010011011101100110 b
b1100011011000010011011101100110 3
b1100011011000010011011101100110 =
15
b1000000 /
b1000000 8
10
b0 R"
b0 Q"
b1100011011000010011011101100110 O"
1!
1,
#620000
0!
0,
#625000
18"
1@
1C
b1011011111000001100110100011001 6"
0P
1)
1T
1#
1Z
1!
1,
#630000
0!
0,
#635000
b111110 f
b111110 H"
b1011011111000001100110100011001 6"
b10110000101100011011001100011011 @"
b11101100001011000110110011000110 ?"
b110011000110111011000 A"
b11001000110001000111001001101000 B"
b1001101000110010001100010001110 C"
b1100010001110010011010001100 D"
b1110 q
b1100110001101110110000101100011 ;"
b11011000101010101011110110000 G"
b1111100011101111011111000010001 >"
b1100001011000100110011001100001 <"
b1100010001110010011010001100100 9"
1'
1V
0#
0Z
0)
0T
08"
b0 E"
0@
b0 o
b0 7"
0C
b0 4
b0 >
b0 ?
b0 b
b0 3
b0 =
05
b1 R"
b0 /
b0 8
00
b1 Q"
1!
1,
#640000
0!
0,
#645000
b1011011111000001100110100011001 6"
1P
0'
0V
01
1!
1,
#650000
0!
0,
#655000
b1011011111000001100110100011001 6"
b1100101001100100110010101100110 E"
b1100101001100100110010101100110 o
b1100101001100100110010101100110 7"
11
b1111 4
b1111 >
b1100110011001010011001001100101 ?
b1100110011001010011001001100101 b
b1100110011001010011001001100101 3
b1100110011001010011001001100101 =
15
b1000000 /
b1000000 8
10
b0 R"
b0 Q"
b1100110011001010011001001100101 O"
1!
1,
#660000
0!
0,
#665000
18"
1@
1C
b1011011111000001100110100011001 6"
0P
1)
1T
1#
1Z
1!
1,
#670000
0!
0,
#675000
b111111 f
b111111 H"
b1011011111000001100110100011001 6"
b110010101100110011001010011001 @"
b1001100101011001100110010100110 ?"
b110010100110010011001 A"
b1110010011001000110111011000100 B"
b11011000100011100100110010001101 C"
b110010001101110110001000111 D"
b1111 q
b1100101001100100110010101100110 ;"
b1011100100001000101001000000101 G"
b10001001100110100100110001101010 F"
b1001001010100101101011010100011 >"
b1100011001101000011100000110100 <"
b110010001101110110001000111001 9"
1'
1V
0#
0Z
0)
0T
08"
b0 E"
0@
b0 o
b0 7"
0C
b0 4
b0 >
b0 ?
b0 b
b0 3
b0 =
05
b1 R"
b0 /
b0 8
00
b1 Q"
1!
1,
#680000
0!
0,
