wave.vcd
$date
	Tue Nov 23 04:41:45 2021
$end
$version
	Icarus Verilog
$end
$timescale
	1ps
$end
$scope module tb_axi_sha256 $end
$var wire 1 ! s_axi_aclk $end
$var wire 1 " s_axi_aresetn $end
$var wire 1 # s_axi_wready $end
$var wire 1 $ s_axi_rvalid $end
$var wire 2 % s_axi_rresp [1:0] $end
$var wire 32 & s_axi_rdata [31:0] $end
$var wire 1 ' s_axi_bvalid $end
$var wire 2 ( s_axi_bresp [1:0] $end
$var wire 1 ) s_axi_awready $end
$var wire 1 * s_axi_arready $end
$var wire 1 + irq_hash_finish $end
$var reg 1 , aclk $end
$var reg 1 " aresetn $end
$var reg 8 - s_axi_araddr [7:0] $end
$var reg 1 . s_axi_arvalid $end
$var reg 8 / s_axi_awaddr [7:0] $end
$var reg 1 0 s_axi_awvalid $end
$var reg 1 1 s_axi_bready $end
$var reg 1 2 s_axi_rready $end
$var reg 32 3 s_axi_wdata [31:0] $end
$var reg 4 4 s_axi_wstrb [3:0] $end
$var reg 1 5 s_axi_wvalid $end
$var reg 32 6 temp [31:0] $end
$scope module sha256_v1_0_S00_AXI_inst $end
$var wire 1 ! S_AXI_ACLK $end
$var wire 8 7 S_AXI_ARADDR [7:0] $end
$var wire 1 " S_AXI_ARESETN $end
$var wire 3 8 S_AXI_ARPROT [2:0] $end
$var wire 1 * S_AXI_ARREADY $end
$var wire 1 . S_AXI_ARVALID $end
$var wire 8 9 S_AXI_AWADDR [7:0] $end
$var wire 3 : S_AXI_AWPROT [2:0] $end
$var wire 1 ) S_AXI_AWREADY $end
$var wire 1 0 S_AXI_AWVALID $end
$var wire 1 1 S_AXI_BREADY $end
$var wire 2 ; S_AXI_BRESP [1:0] $end
$var wire 1 ' S_AXI_BVALID $end
$var wire 32 < S_AXI_RDATA [31:0] $end
$var wire 1 2 S_AXI_RREADY $end
$var wire 2 = S_AXI_RRESP [1:0] $end
$var wire 1 $ S_AXI_RVALID $end
$var wire 32 > S_AXI_WDATA [31:0] $end
$var wire 1 # S_AXI_WREADY $end
$var wire 4 ? S_AXI_WSTRB [3:0] $end
$var wire 1 5 S_AXI_WVALID $end
$var wire 32 @ dat_lsb_i [31:0] $end
$var wire 1 A dat_vaild_i $end
$var wire 1 + irq_hash_finish $end
$var wire 1 B rst_n $end
$var wire 1 C slv_reg_rden $end
$var wire 1 D slv_reg_wren $end
$var wire 32 E slv_reg0_nxt [31:0] $end
$var wire 1 F irq_finish $end
$var wire 1 G hash_busy_o $end
$var wire 32 H hash7 [31:0] $end
$var wire 32 I hash6 [31:0] $end
$var wire 32 J hash5 [31:0] $end
$var wire 32 K hash4 [31:0] $end
$var wire 32 L hash3 [31:0] $end
$var wire 32 M hash2 [31:0] $end
$var wire 32 N hash1 [31:0] $end
$var wire 32 O hash0 [31:0] $end
$var wire 1 P dat_addr_vaild $end
$var reg 1 Q aw_en $end
$var reg 8 R axi_araddr [7:0] $end
$var reg 1 S axi_arready $end
$var reg 8 T axi_awaddr [7:0] $end
$var reg 1 U axi_awready $end
$var reg 2 V axi_bresp [1:0] $end
$var reg 1 W axi_bvalid $end
$var reg 32 X axi_rdata [31:0] $end
$var reg 2 Y axi_rresp [1:0] $end
$var reg 1 Z axi_rvalid $end
$var reg 1 [ axi_wready $end
$var reg 32 \ reg_data_out [31:0] $end
$var reg 32 ] slv_reg0 [31:0] $end
$var reg 32 ^ slv_reg1 [31:0] $end
$var reg 32 _ slv_reg2 [31:0] $end
$var reg 32 ` slv_reg3 [31:0] $end
$var integer 32 a byte_index [31:0] $end
$scope module sha256_inst $end
$var wire 1 b chunk_clr $end
$var wire 1 ! clk $end
$var wire 32 c dat_lsb_i [31:0] $end
$var wire 1 A dat_vaild_i $end
$var wire 1 G hash_busy_o $end
$var wire 1 B rst_n $end
$var wire 32 d w_out [31:0] $end
$var wire 1 e state_is_proc $end
$var wire 32 f k_out [31:0] $end
$var wire 6 g k_addr [5:0] $end
$var wire 32 h hash7 [31:0] $end
$var wire 32 i hash6 [31:0] $end
$var wire 32 j hash5 [31:0] $end
$var wire 32 k hash4 [31:0] $end
$var wire 32 l hash3 [31:0] $end
$var wire 32 m hash2 [31:0] $end
$var wire 32 n hash1 [31:0] $end
$var wire 32 o hash0 [31:0] $end
$var wire 32 p dat_msb_i [31:0] $end
$var wire 1 q chunk_compress_update $end
$var reg 8 r counter [7:0] $end
$var reg 1 F irq_finish $end
$var reg 2 s state [1:0] $end
$var reg 2 t state_next [1:0] $end
$scope module sha256_chunk_compress_u2 $end
$var wire 32 u a [31:0] $end
$var wire 32 v b [31:0] $end
$var wire 32 w c [31:0] $end
$var wire 32 x ch [31:0] $end
$var wire 1 ! clk $end
$var wire 32 y d [31:0] $end
$var wire 32 z e [31:0] $end
$var wire 1 e enable $end
$var wire 32 { f [31:0] $end
$var wire 32 | g [31:0] $end
$var wire 32 } h [31:0] $end
$var wire 32 ~ maj [31:0] $end
$var wire 1 B rst_n $end
$var wire 32 !" s0 [31:0] $end
$var wire 32 "" s1 [31:0] $end
$var wire 1 q update $end
$var wire 32 #" w_in [31:0] $end
$var wire 32 $" tmp2 [31:0] $end
$var wire 32 %" tmp1 [31:0] $end
$var wire 32 &" k_in [31:0] $end
$var wire 32 '" hash7 [31:0] $end
$var wire 32 (" hash6 [31:0] $end
$var wire 32 )" hash5 [31:0] $end
$var wire 32 *" hash4 [31:0] $end
$var wire 32 +" hash3 [31:0] $end
$var wire 32 ," hash2 [31:0] $end
$var wire 32 -" hash1 [31:0] $end
$var wire 32 ." hash0 [31:0] $end
$var wire 32 /" e_rr6 [31:0] $end
$var wire 32 0" e_rr25 [31:0] $end
$var wire 32 1" e_rr11 [31:0] $end
$var wire 32 2" a_rr22 [31:0] $end
$var wire 32 3" a_rr2 [31:0] $end
$var wire 32 4" a_rr13 [31:0] $end
$scope function lsb_to_msb $end
$var reg 32 5" lsb [31:0] $end
$var reg 32 6" lsb_to_msb [31:0] $end
$upscope $end
$scope begin chunk_compress_pipe[1] $end
$upscope $end
$scope begin chunk_compress_pipe[2] $end
$upscope $end
$scope begin chunk_compress_pipe[3] $end
$upscope $end
$upscope $end
$scope module sha256_chunk_process_u0 $end
$var wire 1 b clear $end
$var wire 1 ! clk $end
$var wire 32 7" dat_msb_i [31:0] $end
$var wire 1 A dat_vaild_i $end
$var wire 1 8" enable $end
$var wire 1 e proc_ninit $end
$var wire 1 B rst_n $end
$var wire 32 9" s0 [31:0] $end
$var wire 32 :" s1 [31:0] $end
$var wire 32 ;" w_m15 [31:0] $end
$var wire 32 <" w_m16 [31:0] $end
$var wire 32 =" w_m2 [31:0] $end
$var wire 32 >" w_m7 [31:0] $end
$var wire 32 ?" w_out [31:0] $end
$var wire 32 @" w_new [31:0] $end
$var wire 32 A" w_m2_rr19 [31:0] $end
$var wire 32 B" w_m2_rr17 [31:0] $end
$var wire 32 C" w_m2_r10 [31:0] $end
$var wire 32 D" w_m15_rr7 [31:0] $end
$var wire 32 E" w_m15_rr18 [31:0] $end
$var wire 32 F" w_m15_r3 [31:0] $end
$var wire 32 G" w_in [31:0] $end
$scope begin chunk_proc_pipeline[0] $end
$upscope $end
$scope begin chunk_proc_pipeline[1] $end
$upscope $end
$scope begin chunk_proc_pipeline[2] $end
$upscope $end
$scope begin chunk_proc_pipeline[3] $end
$upscope $end
$scope begin chunk_proc_pipeline[4] $end
$upscope $end
$scope begin chunk_proc_pipeline[5] $end
$upscope $end
$scope begin chunk_proc_pipeline[6] $end
$upscope $end
$scope begin chunk_proc_pipeline[7] $end
$upscope $end
$scope begin chunk_proc_pipeline[8] $end
$upscope $end
$scope begin chunk_proc_pipeline[9] $end
$upscope $end
$scope begin chunk_proc_pipeline[10] $end
$upscope $end
$scope begin chunk_proc_pipeline[11] $end
$upscope $end
$scope begin chunk_proc_pipeline[12] $end
$upscope $end
$scope begin chunk_proc_pipeline[13] $end
$upscope $end
$scope begin chunk_proc_pipeline[14] $end
$upscope $end
$upscope $end
$scope module sha256_k_u1 $end
$var wire 6 H" addr [5:0] $end
$var wire 1 e enable $end
$var wire 32 I" k_o [31:0] $end
$upscope $end
$upscope $end
$upscope $end
$scope task axil_read $end
$var reg 30 J" addr [29:0] $end
$var reg 32 K" temp_addr [31:0] $end
$var reg 32 L" value [31:0] $end
$upscope $end
$scope task axil_wait $end
$var integer 32 M" n [31:0] $end
$upscope $end
$scope task axil_write $end
$var reg 30 N" addr [29:0] $end
$var reg 32 O" data [31:0] $end
$var reg 32 P" temp_addr [31:0] $end
$var integer 32 Q" awready_ok [31:0] $end
$var integer 32 R" wready_ok [31:0] $end
$upscope $end
$scope task dump_sha256_result $end
$upscope $end
$upscope $end
$enddefinitions $end
#0
$dumpvars
bx R"
bx Q"
bx P"
bx O"
bx N"
b11 M"
bx L"
bx K"
bx J"
b0 I"
b110000 H"
b0 G"
b0 F"
b0 E"
b0 D"
b0 C"
b0 B"
b0 A"
b0 @"
b0 ?"
b0 >"
b0 ="
b0 <"
b0 ;"
b0 :"
b0 9"
08"
b0 7"
b11001110011011110000001011011 6"
b1011011111000001100110100011001 5"
b0 4"
b0 3"
b0 2"
b0 1"
b0 0"
b0 /"
b1100111111001100000100101101010 ."
b10000101101011100110011110111011 -"
b1110010111100110110111000111100 ,"
b111010111101010100111110100101 +"
b1111111010100100000111001010001 *"
b10001100011010000000010110011011 )"
b10101011110110011000001100011111 ("
b11001110011011110000001011011 '"
b0 &"
b0 %"
b0 $"
b0 #"
b0 ""
b0 !"
b0 ~
b0 }
b0 |
b0 {
b0 z
b0 y
b0 x
b0 w
b0 v
b0 u
b0 t
b0 s
b0 r
0q
b0 p
b1100111111001100000100101101010 o
b10000101101011100110011110111011 n
b1110010111100110110111000111100 m
b111010111101010100111110100101 l
b1111111010100100000111001010001 k
b10001100011010000000010110011011 j
b10101011110110011000001100011111 i
b11001110011011110000001011011 h
b110000 g
b0 f
0e
b0 d
b0 c
1b
bx a
bx `
bx _
bx ^
bx ]
b0 \
x[
xZ
bx Y
bx X
xW
bx V
xU
bx T
xS
bx R
xQ
xP
b1100111111001100000100101101010 O
b10000101101011100110011110111011 N
b1110010111100110110111000111100 M
b111010111101010100111110100101 L
b1111111010100100000111001010001 K
b10001100011010000000010110011011 J
b10101011110110011000001100011111 I
b11001110011011110000001011011 H
0G
0F
b0x0 E
0D
0C
0B
0A
b0 @
b0 ?
b0 >
bx =
bx <
bx ;
b0 :
b0 9
b0 8
b0 7
bx 6
05
b0 4
b0 3
02
01
00
b0 /
0.
b0 -
0,
0+
x*
x)
bx (
x'
bx &
bx %
x$
x#
0"
0!
$end
#5000
b11001110011011110000001011011 6"
b1011011111000001100110100011001 5"
0P
b0 E
1Q
0)
0U
b0 T
0#
0[
b0 `
b0 _
b0 ^
b0 ]
b0 (
b0 ;
b0 V
0'
0W
b0 R
0*
0S
b0 %
b0 =
b0 Y
0$
0Z
b0 &
b0 <
b0 X
1!
1,
#10000
0!
0,
#15000
b11001110011011110000001011011 6"
b1011011111000001100110100011001 5"
1!
1,
#20000
0!
0,
#25000
b11001110011011110000001011011 6"
b1011011111000001100110100011001 5"
1B
1"
1!
1,
#30000
0!
0,
#35000
b111010011011111110011001100111 ~
b1000100100001001101011100101 $"
b11001110001000001011010001111110 !"
b11111100001011100100110001100 x
b110101100001110010011100101011 ""
b11011010100000100111100110011001 3"
b110011001110110101000001001111 4"
b100111100110011001110110101000 2"
b11111101010001000011100101001001 /"
b1001111111010100010000111001010 1"
b10000111001010010011111110101000 0"
b11001110011011110000001011011 6"
b1011011111000001100110100011001 5"
b10111011011001111010111010000101 v
b10011011000001010110100010001100 {
b111100011011101111001101110010 w
b11111100000111101100110101011 |
b10100101010011111111010100111010 y
b10110000111011011011110111010000 %"
b1011011111000001100110100011001 }
b1101010000010011110011001100111 u
b1010001000011100101001001111111 z
1!
1,
#40000
0!
0,
#45000
b11001110011011110000001011011 6"
b1011011111000001100110100011001 5"
1!
1,
#50000
0!
0,
#55000
b11001110011011110000001011011 6"
b1011011111000001100110100011001 5"
b11000000000000000000000000 G"
b11000000000000000000000000 p
b11000000000000000000000000 7"
b1 M"
11
b1111 4
b1111 ?
b11 @
b11 c
b11 3
b11 >
15
b0 P"
10
b0 R"
b0 Q"
b11 O"
b0 N"
1!
1,
#60000
0!
0,
#65000
1D
b11001110011011110000001011011 6"
b1011011111000001100110100011001 5"
0Q
1)
1U
1#
1[
1!
1,
#70000
0!
0,
#75000
b0 ""
b0 !"
b0 x
b0 $"
b0 ~
b0 /"
b0 1"
b0 0"
b0 3"
b0 4"
b0 2"
b0 z
b0 u
b0 %"
b0 }
b0 y
b0 |
b0 w
b0 {
b0 v
b11 \
0B
b11001110011011110000001011011 6"
b1011011111000001100110100011001 5"
b10 E
1'
1W
b11 ]
0#
0[
0)
0U
b0 G"
b0 p
b0 7"
0D
b0 4
b0 ?
b0 @
b0 c
b0 3
b0 >
05
b1 R"
00
b1 Q"
b100 a
1!
1,
#80000
0!
0,
#85000
b10 \
1B
b11001110011011110000001011011 6"
b1011011111000001100110100011001 5"
1Q
b10 ]
0'
0W
01
1!
1,
#90000
0!
0,
#95000
b110101100001110010011100101011 ""
b11001110001000001011010001111110 !"
b11111100001011100100110001100 x
b1000100100001001101011100101 $"
b111010011011111110011001100111 ~
b11001110011011110000001011011 6"
b1011011111000001100110100011001 5"
b11111101010001000011100101001001 /"
b1001111111010100010000111001010 1"
b10000111001010010011111110101000 0"
b11011010100000100111100110011001 3"
b110011001110110101000001001111 4"
b100111100110011001110110101000 2"
b1010001000011100101001001111111 z
b1101010000010011110011001100111 u
b10110000111011011011110111010000 %"
b1011011111000001100110100011001 }
b10100101010011111111010100111010 y
b11111100000111101100110101011 |
b111100011011101111001101110010 w
b10011011000001010110100010001100 {
b10111011011001111010111010000101 v
b1101000011001010110110001101100 G"
b1101000011001010110110001101100 p
b1101000011001010110110001101100 7"
11
b1111 4
b1111 ?
b1101100011011000110010101101000 @
b1101100011011000110010101101000 c
b1101100011011000110010101101000 3
b1101100011011000110010101101000 >
15
b1000000 P"
b1000000 /
b1000000 9
10
b0 R"
b0 Q"
b1101100011011000110010101101000 O"
b10000 N"
1!
1,
#100000
0!
0,
#105000
0b
18"
b1 t
1A
1D
b11001110011011110000001011011 6"
b1011011111000001100110100011001 5"
1P
0Q
1)
1U
b1000000 T
1#
1[
1!
1,
#110000
0!
0,
#115000
b110001 g
b110001 H"
b11001110011011110000001011011 6"
b1011011111000001100110100011001 5"
b1 s
b1 r
1'
1W
0#
0[
0)
0U
0b
08"
b1 t
b0 G"
0A
b0 p
b0 7"
0D
b0 4
b0 ?
b0 @
b0 c
b0 3
b0 >
05
b1 R"
b0 /
b0 9
00
b1 Q"
1!
1,
#120000
0!
0,
#125000
b11001110011011110000001011011 6"
b1011011111000001100110100011001 5"
1Q
0'
0W
01
1!
1,
#130000
0!
0,
#135000
b11001110011011110000001011011 6"
b1011011111000001100110100011001 5"
b1101111001000000111011101101111 G"
b1101111001000000111011101101111 p
b1101111001000000111011101101111 7"
11
b1111 4
b1111 ?
b1101111011101110010000001101111 @
b1101111011101110010000001101111 c
b1101111011101110010000001101111 3
b1101111011101110010000001101111 >
15
b1000100 P"
b1000100 /
b1000100 9
10
b0 R"
b0 Q"
b1101111011101110010000001101111 O"
b10001 N"
1!
1,
#140000
0!
0,
#145000
18"
1A
1D
b11001110011011110000001011011 6"
b1011011111000001100110100011001 5"
0Q
1)
1U
b1000100 T
1#
1[
1!
1,
#150000
0!
0,
#155000
b11011101000011010000001100101 @"
b11011101000011010000001100101 :"
b110010 g
b110010 H"
b11001110011011110000001011011 6"
b1011011111000001100110100011001 5"
b10110110001101100011010000110010 B"
b10101101100011011000110100001100 A"
b110100001100101011011 C"
b10 r
b1101000011001010110110001101100 ="
1'
1W
0#
0[
0)
0U
08"
b0 G"
0A
b0 p
b0 7"
0D
b0 4
b0 ?
b0 @
b0 c
b0 3
b0 >
05
b1 R"
b0 /
b0 9
00
b1 Q"
1!
1,
#160000
0!
0,
#165000
b11001110011011110000001011011 6"
b1011011111000001100110100011001 5"
1Q
0'
0W
01
1!
1,
#170000
0!
0,
#175000
b11001110011011110000001011011 6"
b1011011111000001100110100011001 5"
b1110010011011000110010010000000 G"
b1110010011011000110010010000000 p
b1110010011011000110010010000000 7"
11
b1111 4
b1111 ?
b10000000011001000110110001110010 @
b10000000011001000110110001110010 c
b10000000011001000110110001110010 3
b10000000011001000110110001110010 >
15
b1001000 P"
b1001000 /
b1001000 9
10
b0 R"
b0 Q"
b10000000011001000110110001110010 O"
b10010 N"
1!
1,
#180000
0!
0,
#185000
18"
1A
1D
b11001110011011110000001011011 6"
b1011011111000001100110100011001 5"
0Q
1)
1U
b1001000 T
1#
1[
1!
1,
#190000
0!
0,
#195000
b110101010000011001001001101001 @"
b110101010000011001001001101001 :"
b110011 g
b110011 H"
b11001110011011110000001011011 6"
b1011011111000001100110100011001 5"
b111011101101111011011110010000 B"
b1110111011011110110111100100 A"
b110111100100000011101 C"
b11 r
b1101111001000000111011101101111 ="
1'
1W
0#
0[
0)
0U
08"
b0 G"
0A
b0 p
b0 7"
0D
b0 4
b0 ?
b0 @
b0 c
b0 3
b0 >
05
b1 R"
b0 /
b0 9
00
b1 Q"
1!
1,
#200000
0!
0,
#205000
b11001110011011110000001011011 6"
b1011011111000001100110100011001 5"
1Q
0'
0W
01
1!
1,
#210000
0!
0,
#215000
b11001110011011110000001011011 6"
b1011011111000001100110100011001 5"
11
b1111 4
b1111 ?
15
b1001100 P"
b1001100 /
b1001100 9
10
b0 R"
b0 Q"
b0 O"
b10011 N"
1!
1,
#220000
0!
0,
#225000
18"
1A
1D
b11001110011011110000001011011 6"
b1011011111000001100110100011001 5"
0Q
1)
1U
b1001100 T
1#
1[
1!
1,
#230000
0!
0,
#235000
b10111110110011001010110001100010 @"
b10111110110011001010110001100010 :"
b110100 g
b110100 H"
b11001110011011110000001011011 6"
b1011011111000001100110100011001 5"
b110010010000000011100100110110 B"
b10001100100100000000111001001101 A"
b111001001101100011001 C"
b100 r
b1110010011011000110010010000000 ="
1'
1W
0#
0[
0)
0U
08"
0A
0D
b0 4
b0 ?
05
b1 R"
b0 /
b0 9
00
b1 Q"
1!
1,
#240000
0!
0,
#245000
b11001110011011110000001011011 6"
b1011011111000001100110100011001 5"
1Q
0'
0W
01
1!
1,
#250000
0!
0,
#255000
b11001110011011110000001011011 6"
b1011011111000001100110100011001 5"
11
b1111 4
b1111 ?
15
b1010000 P"
b1010000 /
b1010000 9
10
b0 R"
b0 Q"
b10100 N"
1!
1,
#260000
0!
0,
#265000
18"
1A
1D
b11001110011011110000001011011 6"
b1011011111000001100110100011001 5"
0Q
1)
1U
b1010000 T
1#
1[
1!
1,
#270000
0!
0,
#275000
b0 @"
b0 :"
b110101 g
b110101 H"
b11001110011011110000001011011 6"
b1011011111000001100110100011001 5"
b0 B"
b0 A"
b0 C"
b101 r
b0 ="
1'
1W
0#
0[
0)
0U
08"
0A
0D
b0 4
b0 ?
05
b1 R"
b0 /
b0 9
00
b1 Q"
1!
1,
#280000
0!
0,
#285000
b11001110011011110000001011011 6"
b1011011111000001100110100011001 5"
1Q
0'
0W
01
1!
1,
#290000
0!
0,
#295000
b11001110011011110000001011011 6"
b1011011111000001100110100011001 5"
11
b1111 4
b1111 ?
15
b1010100 P"
b1010100 /
b1010100 9
10
b0 R"
b0 Q"
b10101 N"
1!
1,
#300000
0!
0,
#305000
18"
1A
1D
b11001110011011110000001011011 6"
b1011011111000001100110100011001 5"
0Q
1)
1U
b1010100 T
1#
1[
1!
1,
#310000
0!
0,
#315000
b110110 g
b110110 H"
b11001110011011110000001011011 6"
b1011011111000001100110100011001 5"
b110 r
1'
1W
0#
0[
0)
0U
08"
0A
0D
b0 4
b0 ?
05
b1 R"
b0 /
b0 9
00
b1 Q"
1!
1,
#320000
0!
0,
#325000
b11001110011011110000001011011 6"
b1011011111000001100110100011001 5"
1Q
0'
0W
01
1!
1,
#330000
0!
0,
#335000
b11001110011011110000001011011 6"
b1011011111000001100110100011001 5"
11
b1111 4
b1111 ?
15
b1011000 P"
b1011000 /
b1011000 9
10
b0 R"
b0 Q"
b10110 N"
1!
1,
#340000
0!
0,
#345000
18"
1A
1D
b11001110011011110000001011011 6"
b1011011111000001100110100011001 5"
0Q
1)
1U
b1011000 T
1#
1[
1!
1,
#350000
0!
0,
#355000
b110111 g
b110111 H"
b11001110011011110000001011011 6"
b1011011111000001100110100011001 5"
b111 r
b1101000011001010110110001101100 @"
b1101000011001010110110001101100 >"
1'
1W
0#
0[
0)
0U
08"
0A
0D
b0 4
b0 ?
05
b1 R"
b0 /
b0 9
00
b1 Q"
1!
1,
#360000
0!
0,
#365000
b11001110011011110000001011011 6"
b1011011111000001100110100011001 5"
1Q
0'
0W
01
1!
1,
#370000
0!
0,
#375000
b11001110011011110000001011011 6"
b1011011111000001100110100011001 5"
11
b1111 4
b1111 ?
15
b1011100 P"
b1011100 /
b1011100 9
10
b0 R"
b0 Q"
b10111 N"
1!
1,
#380000
0!
0,
#385000
18"
1A
1D
b11001110011011110000001011011 6"
b1011011111000001100110100011001 5"
0Q
1)
1U
b1011100 T
1#
1[
1!
1,
#390000
0!
0,
#395000
b111000 g
b111000 H"
b11001110011011110000001011011 6"
b1011011111000001100110100011001 5"
b1000 r
b1101111001000000111011101101111 @"
b1101111001000000111011101101111 >"
1'
1W
0#
0[
0)
0U
08"
0A
0D
b0 4
b0 ?
05
b1 R"
b0 /
b0 9
00
b1 Q"
1!
1,
#400000
0!
0,
#405000
b11001110011011110000001011011 6"
b1011011111000001100110100011001 5"
1Q
0'
0W
01
1!
1,
#410000
0!
0,
#415000
b11001110011011110000001011011 6"
b1011011111000001100110100011001 5"
11
b1111 4
b1111 ?
15
b1100000 P"
b1100000 /
b1100000 9
10
b0 R"
b0 Q"
b11000 N"
1!
1,
#420000
0!
0,
#425000
18"
1A
1D
b11001110011011110000001011011 6"
b1011011111000001100110100011001 5"
0Q
1)
1U
b1100000 T
1#
1[
1!
1,
#430000
0!
0,
#435000
b111001 g
b111001 H"
b11001110011011110000001011011 6"
b1011011111000001100110100011001 5"
b1001 r
b1110010011011000110010010000000 @"
b1110010011011000110010010000000 >"
1'
1W
0#
0[
0)
0U
08"
0A
0D
b0 4
b0 ?
05
b1 R"
b0 /
b0 9
00
b1 Q"
1!
1,
#440000
0!
0,
#445000
b11001110011011110000001011011 6"
b1011011111000001100110100011001 5"
1Q
0'
0W
01
1!
1,
#450000
0!
0,
#455000
b11001110011011110000001011011 6"
b1011011111000001100110100011001 5"
11
b1111 4
b1111 ?
15
b1100100 P"
b1100100 /
b1100100 9
10
b0 R"
b0 Q"
b11001 N"
1!
1,
#460000
0!
0,
#465000
18"
1A
1D
b11001110011011110000001011011 6"
b1011011111000001100110100011001 5"
0Q
1)
1U
b1100100 T
1#
1[
1!
1,
#470000
0!
0,
#475000
b111010 g
b111010 H"
b11001110011011110000001011011 6"
b1011011111000001100110100011001 5"
b1010 r
b0 @"
b0 >"
1'
1W
0#
0[
0)
0U
08"
0A
0D
b0 4
b0 ?
05
b1 R"
b0 /
b0 9
00
b1 Q"
1!
1,
#480000
0!
0,
#485000
b11001110011011110000001011011 6"
b1011011111000001100110100011001 5"
1Q
0'
0W
01
1!
1,
#490000
0!
0,
#495000
b11001110011011110000001011011 6"
b1011011111000001100110100011001 5"
11
b1111 4
b1111 ?
15
b1101000 P"
b1101000 /
b1101000 9
10
b0 R"
b0 Q"
b11010 N"
1!
1,
#500000
0!
0,
#505000
18"
1A
1D
b11001110011011110000001011011 6"
b1011011111000001100110100011001 5"
0Q
1)
1U
b1101000 T
1#
1[
1!
1,
#510000
0!
0,
#515000
b111011 g
b111011 H"
b11001110011011110000001011011 6"
b1011011111000001100110100011001 5"
b1011 r
1'
1W
0#
0[
0)
0U
08"
0A
0D
b0 4
b0 ?
05
b1 R"
b0 /
b0 9
00
b1 Q"
1!
1,
#520000
0!
0,
#525000
b11001110011011110000001011011 6"
b1011011111000001100110100011001 5"
1Q
0'
0W
01
1!
1,
#530000
0!
0,
#535000
b11001110011011110000001011011 6"
b1011011111000001100110100011001 5"
11
b1111 4
b1111 ?
15
b1101100 P"
b1101100 /
b1101100 9
10
b0 R"
b0 Q"
b11011 N"
1!
1,
#540000
0!
0,
#545000
18"
1A
1D
b11001110011011110000001011011 6"
b1011011111000001100110100011001 5"
0Q
1)
1U
b1101100 T
1#
1[
1!
1,
#550000
0!
0,
#555000
b111100 g
b111100 H"
b11001110011011110000001011011 6"
b1011011111000001100110100011001 5"
b1100 r
1'
1W
0#
0[
0)
0U
08"
0A
0D
b0 4
b0 ?
05
b1 R"
b0 /
b0 9
00
b1 Q"
1!
1,
#560000
0!
0,
#565000
b11001110011011110000001011011 6"
b1011011111000001100110100011001 5"
1Q
0'
0W
01
1!
1,
#570000
0!
0,
#575000
b11001110011011110000001011011 6"
b1011011111000001100110100011001 5"
11
b1111 4
b1111 ?
15
b1110000 P"
b1110000 /
b1110000 9
10
b0 R"
b0 Q"
b11100 N"
1!
1,
#580000
0!
0,
#585000
18"
1A
1D
b11001110011011110000001011011 6"
b1011011111000001100110100011001 5"
0Q
1)
1U
b1110000 T
1#
1[
1!
1,
#590000
0!
0,
#595000
b111101 g
b111101 H"
b11001110011011110000001011011 6"
b1011011111000001100110100011001 5"
b1101 r
1'
1W
0#
0[
0)
0U
08"
0A
0D
b0 4
b0 ?
05
b1 R"
b0 /
b0 9
00
b1 Q"
1!
1,
#600000
0!
0,
#605000
b11001110011011110000001011011 6"
b1011011111000001100110100011001 5"
1Q
0'
0W
01
1!
1,
#610000
0!
0,
#615000
b11001110011011110000001011011 6"
b1011011111000001100110100011001 5"
11
b1111 4
b1111 ?
15
b1110100 P"
b1110100 /
b1110100 9
10
b0 R"
b0 Q"
b11101 N"
1!
1,
#620000
0!
0,
#625000
18"
1A
1D
b11001110011011110000001011011 6"
b1011011111000001100110100011001 5"
0Q
1)
1U
b1110100 T
1#
1[
1!
1,
#630000
0!
0,
#635000
b111110 g
b111110 H"
b11001110011011110000001011011 6"
b1011011111000001100110100011001 5"
b1110 r
1'
1W
0#
0[
0)
0U
08"
0A
0D
b0 4
b0 ?
05
b1 R"
b0 /
b0 9
00
b1 Q"
1!
1,
#640000
0!
0,
#645000
b11001110011011110000001011011 6"
b1011011111000001100110100011001 5"
1Q
0'
0W
01
1!
1,
#650000
0!
0,
#655000
b11001110011011110000001011011 6"
b1011011111000001100110100011001 5"
11
b1111 4
b1111 ?
15
b1111000 P"
b1111000 /
b1111000 9
10
b0 R"
b0 Q"
b11110 N"
1!
1,
#660000
0!
0,
#665000
18"
1A
1D
b11001110011011110000001011011 6"
b1011011111000001100110100011001 5"
0Q
1)
1U
b1111000 T
1#
1[
1!
1,
#670000
0!
0,
#675000
b10001110110001110111110101001100 @"
b10001110110001110111110101001100 9"
b111111 g
b111111 H"
b11001110011011110000001011011 6"
b1011011111000001100110100011001 5"
b11011000110100001100101011011000 D"
b1011011000110110001101000011001 E"
b1101000011001010110110001101 F"
b1111 r
b1101000011001010110110001101100 ;"
1'
1W
0#
0[
0)
0U
08"
0A
0D
b0 4
b0 ?
05
b1 R"
b0 /
b0 9
00
b1 Q"
1!
1,
#680000
0!
0,
#685000
b11001110011011110000001011011 6"
b1011011111000001100110100011001 5"
1Q
0'
0W
01
1!
1,
#690000
0!
0,
#695000
b11001110011011110000001011011 6"
b1011011111000001100110100011001 5"
b1011000 G"
b1011000 p
b1011000 7"
11
b1111 4
b1111 ?
b1011000000000000000000000000000 @
b1011000000000000000000000000000 c
b1011000000000000000000000000000 3
b1011000000000000000000000000000 >
15
b1111100 P"
b1111100 /
b1111100 9
10
b0 R"
b0 Q"
b1011000000000000000000000000000 O"
b11111 N"
1!
1,
#700000
0!
0,
#705000
18"
1A
1D
b11001110011011110000001011011 6"
b1011011111000001100110100011001 5"
0Q
1)
1U
b1111100 T
1#
1[
1!
1,
#710000
0!
0,
#715000
b11001110111000011001010111001011 9"
b10 t
b0 g
b0 H"
b11001110011011110000001011011 6"
b1011011111000001100110100011001 5"
b11011110110111100100000011101110 D"
b11101110110111101101111001000 E"
b1101111001000000111011101101 F"
b10000 r
b1101111001000000111011101101111 ;"
b110111010001110000001000110111 @"
b1101000011001010110110001101100 <"
b11001010100110010101000111100 %"
b1101000011001010110110001101100 d
b1101000011001010110110001101100 #"
b1101000011001010110110001101100 ?"
1'
1W
0#
0[
0)
0U
08"
b0 G"
0A
b0 p
b0 7"
0D
b0 4
b0 ?
b0 @
b0 c
b0 3
b0 >
05
b1 R"
b0 /
b0 9
00
b1 Q"
1!
1,
#720000
0!
0,
#725000
b11001110011011110000001011011 6"
b1011011111000001100110100011001 5"
b100000010 E
1G
18"
b110111010001110000001000110111 G"
b1011011110111010101100111010100 %"
b1000010100010100010111110011000 f
b1000010100010100010111110011000 &"
b1000010100010100010111110011000 I"
1e
b10 s
1Q
0'
0W
01
1!
1,
#730000
0!
0,
