sim/out/sha256_axi_full.vcd
$date
	Thu Dec 09 02:52:30 2021
$end
$version
	ModelSim Version 2020.4
$end
$timescale
	1ps
$end

$scope module sha256_axi_full_tb $end
$var parameter 32 ! T $end
$var parameter 32 " AXI_ID_WIDTH $end
$var parameter 32 # AXI_DATA_WIDTH $end
$var parameter 32 $ AXI_ADDR_WIDTH $end
$var parameter 2 % BURST_FIXED $end
$var parameter 2 & BURST_INC $end
$var parameter 2 ' BURST_WRAP $end
$var reg 1 ( aclk $end
$var reg 1 ) aresetn $end
$var reg 1 * axi_awid [0:0] $end
$var reg 8 + axi_awaddr [7:0] $end
$var reg 8 , axi_awlen [7:0] $end
$var reg 3 - axi_awsize [2:0] $end
$var reg 2 . axi_awbrust [1:0] $end
$var reg 1 / axi_awlock $end
$var reg 4 0 axi_awcache [3:0] $end
$var reg 3 1 axi_awprot [2:0] $end
$var reg 4 2 axi_awqos [3:0] $end
$var reg 4 3 axi_awregion [3:0] $end
$var reg 1 4 axi_awvaild $end
$var wire 1 5 axi_awready $end
$var reg 32 6 axi_wdata [31:0] $end
$var reg 4 7 axi_wstrb [3:0] $end
$var reg 1 8 axi_wlast $end
$var reg 1 9 axi_wvaild $end
$var wire 1 : axi_wready $end
$var wire 1 ; axi_bid [0] $end
$var wire 1 < axi_bresp [1] $end
$var wire 1 = axi_bresp [0] $end
$var wire 1 > axi_bvaild $end
$var reg 1 ? axi_bready $end
$var reg 1 @ axi_arid [0:0] $end
$var reg 8 A axi_araddr [7:0] $end
$var reg 8 B axi_arlen [7:0] $end
$var reg 3 C axi_arsize [2:0] $end
$var reg 2 D axi_arbrust [1:0] $end
$var reg 1 E axi_arlock $end
$var reg 4 F axi_arcache [3:0] $end
$var reg 3 G axi_arprot [2:0] $end
$var reg 4 H axi_arqos [3:0] $end
$var reg 4 I axi_arregion [3:0] $end
$var reg 1 J axi_arvaild $end
$var wire 1 K axi_arready $end
$var wire 1 L axi_rid [0] $end
$var wire 1 M axi_rdata [31] $end
$var wire 1 N axi_rdata [30] $end
$var wire 1 O axi_rdata [29] $end
$var wire 1 P axi_rdata [28] $end
$var wire 1 Q axi_rdata [27] $end
$var wire 1 R axi_rdata [26] $end
$var wire 1 S axi_rdata [25] $end
$var wire 1 T axi_rdata [24] $end
$var wire 1 U axi_rdata [23] $end
$var wire 1 V axi_rdata [22] $end
$var wire 1 W axi_rdata [21] $end
$var wire 1 X axi_rdata [20] $end
$var wire 1 Y axi_rdata [19] $end
$var wire 1 Z axi_rdata [18] $end
$var wire 1 [ axi_rdata [17] $end
$var wire 1 \ axi_rdata [16] $end
$var wire 1 ] axi_rdata [15] $end
$var wire 1 ^ axi_rdata [14] $end
$var wire 1 _ axi_rdata [13] $end
$var wire 1 ` axi_rdata [12] $end
$var wire 1 a axi_rdata [11] $end
$var wire 1 b axi_rdata [10] $end
$var wire 1 c axi_rdata [9] $end
$var wire 1 d axi_rdata [8] $end
$var wire 1 e axi_rdata [7] $end
$var wire 1 f axi_rdata [6] $end
$var wire 1 g axi_rdata [5] $end
$var wire 1 h axi_rdata [4] $end
$var wire 1 i axi_rdata [3] $end
$var wire 1 j axi_rdata [2] $end
$var wire 1 k axi_rdata [1] $end
$var wire 1 l axi_rdata [0] $end
$var wire 1 m axi_rresp [1] $end
$var wire 1 n axi_rresp [0] $end
$var wire 1 o axi_rlast $end
$var wire 1 p axi_rvaild $end
$var reg 1 q axi_rready $end
$var wire 1 r void_user [-1] $end
$var wire 1 s void_user [0] $end

$scope task axi_wait $end
$var integer 32 t n $end
$upscope $end

$scope task axi_read $end
$var reg 6 u raddr [5:0] $end
$var reg 8 v rlen [7:0] $end
$var reg 2 w burst [1:0] $end
$var integer 32 x addr_cnt $end
$upscope $end

$scope task axi_write $end
$var reg 6 y waddr [5:0] $end
$var reg 8 z wlen [7:0] $end
$var reg 2 { burst [1:0] $end
$var integer 32 | addr_cnt $end
$upscope $end

$scope module sha256_axi_full_inst $end
$var parameter 32 } C_S00_AXI_ID_WIDTH $end
$var parameter 32 ~ C_S00_AXI_DATA_WIDTH $end
$var parameter 32 !! C_S00_AXI_ADDR_WIDTH $end
$var parameter 32 "! C_S00_AXI_AWUSER_WIDTH $end
$var parameter 32 #! C_S00_AXI_ARUSER_WIDTH $end
$var parameter 32 $! C_S00_AXI_WUSER_WIDTH $end
$var parameter 32 %! C_S00_AXI_RUSER_WIDTH $end
$var parameter 32 &! C_S00_AXI_BUSER_WIDTH $end
$var wire 1 '! s00_axi_aclk $end
$var wire 1 (! s00_axi_aresetn $end
$var wire 1 )! s00_axi_awid [0] $end
$var wire 1 *! s00_axi_awaddr [7] $end
$var wire 1 +! s00_axi_awaddr [6] $end
$var wire 1 ,! s00_axi_awaddr [5] $end
$var wire 1 -! s00_axi_awaddr [4] $end
$var wire 1 .! s00_axi_awaddr [3] $end
$var wire 1 /! s00_axi_awaddr [2] $end
$var wire 1 0! s00_axi_awaddr [1] $end
$var wire 1 1! s00_axi_awaddr [0] $end
$var wire 1 2! s00_axi_awlen [7] $end
$var wire 1 3! s00_axi_awlen [6] $end
$var wire 1 4! s00_axi_awlen [5] $end
$var wire 1 5! s00_axi_awlen [4] $end
$var wire 1 6! s00_axi_awlen [3] $end
$var wire 1 7! s00_axi_awlen [2] $end
$var wire 1 8! s00_axi_awlen [1] $end
$var wire 1 9! s00_axi_awlen [0] $end
$var wire 1 :! s00_axi_awsize [2] $end
$var wire 1 ;! s00_axi_awsize [1] $end
$var wire 1 <! s00_axi_awsize [0] $end
$var wire 1 =! s00_axi_awburst [1] $end
$var wire 1 >! s00_axi_awburst [0] $end
$var wire 1 ?! s00_axi_awlock $end
$var wire 1 @! s00_axi_awcache [3] $end
$var wire 1 A! s00_axi_awcache [2] $end
$var wire 1 B! s00_axi_awcache [1] $end
$var wire 1 C! s00_axi_awcache [0] $end
$var wire 1 D! s00_axi_awprot [2] $end
$var wire 1 E! s00_axi_awprot [1] $end
$var wire 1 F! s00_axi_awprot [0] $end
$var wire 1 G! s00_axi_awqos [3] $end
$var wire 1 H! s00_axi_awqos [2] $end
$var wire 1 I! s00_axi_awqos [1] $end
$var wire 1 J! s00_axi_awqos [0] $end
$var wire 1 K! s00_axi_awregion [3] $end
$var wire 1 L! s00_axi_awregion [2] $end
$var wire 1 M! s00_axi_awregion [1] $end
$var wire 1 N! s00_axi_awregion [0] $end
$var wire 1 r s00_axi_awuser [-1] $end
$var wire 1 s s00_axi_awuser [0] $end
$var wire 1 O! s00_axi_awvalid $end
$var wire 1 5 s00_axi_awready $end
$var wire 1 P! s00_axi_wdata [31] $end
$var wire 1 Q! s00_axi_wdata [30] $end
$var wire 1 R! s00_axi_wdata [29] $end
$var wire 1 S! s00_axi_wdata [28] $end
$var wire 1 T! s00_axi_wdata [27] $end
$var wire 1 U! s00_axi_wdata [26] $end
$var wire 1 V! s00_axi_wdata [25] $end
$var wire 1 W! s00_axi_wdata [24] $end
$var wire 1 X! s00_axi_wdata [23] $end
$var wire 1 Y! s00_axi_wdata [22] $end
$var wire 1 Z! s00_axi_wdata [21] $end
$var wire 1 [! s00_axi_wdata [20] $end
$var wire 1 \! s00_axi_wdata [19] $end
$var wire 1 ]! s00_axi_wdata [18] $end
$var wire 1 ^! s00_axi_wdata [17] $end
$var wire 1 _! s00_axi_wdata [16] $end
$var wire 1 `! s00_axi_wdata [15] $end
$var wire 1 a! s00_axi_wdata [14] $end
$var wire 1 b! s00_axi_wdata [13] $end
$var wire 1 c! s00_axi_wdata [12] $end
$var wire 1 d! s00_axi_wdata [11] $end
$var wire 1 e! s00_axi_wdata [10] $end
$var wire 1 f! s00_axi_wdata [9] $end
$var wire 1 g! s00_axi_wdata [8] $end
$var wire 1 h! s00_axi_wdata [7] $end
$var wire 1 i! s00_axi_wdata [6] $end
$var wire 1 j! s00_axi_wdata [5] $end
$var wire 1 k! s00_axi_wdata [4] $end
$var wire 1 l! s00_axi_wdata [3] $end
$var wire 1 m! s00_axi_wdata [2] $end
$var wire 1 n! s00_axi_wdata [1] $end
$var wire 1 o! s00_axi_wdata [0] $end
$var wire 1 p! s00_axi_wstrb [3] $end
$var wire 1 q! s00_axi_wstrb [2] $end
$var wire 1 r! s00_axi_wstrb [1] $end
$var wire 1 s! s00_axi_wstrb [0] $end
$var wire 1 t! s00_axi_wlast $end
$var wire 1 r s00_axi_wuser [-1] $end
$var wire 1 s s00_axi_wuser [0] $end
$var wire 1 u! s00_axi_wvalid $end
$var wire 1 : s00_axi_wready $end
$var wire 1 ; s00_axi_bid [0] $end
$var wire 1 < s00_axi_bresp [1] $end
$var wire 1 = s00_axi_bresp [0] $end
$var wire 1 r s00_axi_buser [-1] $end
$var wire 1 s s00_axi_buser [0] $end
$var wire 1 > s00_axi_bvalid $end
$var wire 1 v! s00_axi_bready $end
$var wire 1 L s00_axi_arid [0] $end
$var wire 1 w! s00_axi_araddr [7] $end
$var wire 1 x! s00_axi_araddr [6] $end
$var wire 1 y! s00_axi_araddr [5] $end
$var wire 1 z! s00_axi_araddr [4] $end
$var wire 1 {! s00_axi_araddr [3] $end
$var wire 1 |! s00_axi_araddr [2] $end
$var wire 1 }! s00_axi_araddr [1] $end
$var wire 1 ~! s00_axi_araddr [0] $end
$var wire 1 !" s00_axi_arlen [7] $end
$var wire 1 "" s00_axi_arlen [6] $end
$var wire 1 #" s00_axi_arlen [5] $end
$var wire 1 $" s00_axi_arlen [4] $end
$var wire 1 %" s00_axi_arlen [3] $end
$var wire 1 &" s00_axi_arlen [2] $end
$var wire 1 '" s00_axi_arlen [1] $end
$var wire 1 (" s00_axi_arlen [0] $end
$var wire 1 )" s00_axi_arsize [2] $end
$var wire 1 *" s00_axi_arsize [1] $end
$var wire 1 +" s00_axi_arsize [0] $end
$var wire 1 ," s00_axi_arburst [1] $end
$var wire 1 -" s00_axi_arburst [0] $end
$var wire 1 ." s00_axi_arlock $end
$var wire 1 /" s00_axi_arcache [3] $end
$var wire 1 0" s00_axi_arcache [2] $end
$var wire 1 1" s00_axi_arcache [1] $end
$var wire 1 2" s00_axi_arcache [0] $end
$var wire 1 3" s00_axi_arprot [2] $end
$var wire 1 4" s00_axi_arprot [1] $end
$var wire 1 5" s00_axi_arprot [0] $end
$var wire 1 6" s00_axi_arqos [3] $end
$var wire 1 7" s00_axi_arqos [2] $end
$var wire 1 8" s00_axi_arqos [1] $end
$var wire 1 9" s00_axi_arqos [0] $end
$var wire 1 :" s00_axi_arregion [3] $end
$var wire 1 ;" s00_axi_arregion [2] $end
$var wire 1 <" s00_axi_arregion [1] $end
$var wire 1 =" s00_axi_arregion [0] $end
$var wire 1 r s00_axi_aruser [-1] $end
$var wire 1 s s00_axi_aruser [0] $end
$var wire 1 >" s00_axi_arvalid $end
$var wire 1 K s00_axi_arready $end
$var wire 1 L s00_axi_rid [0] $end
$var wire 1 M s00_axi_rdata [31] $end
$var wire 1 N s00_axi_rdata [30] $end
$var wire 1 O s00_axi_rdata [29] $end
$var wire 1 P s00_axi_rdata [28] $end
$var wire 1 Q s00_axi_rdata [27] $end
$var wire 1 R s00_axi_rdata [26] $end
$var wire 1 S s00_axi_rdata [25] $end
$var wire 1 T s00_axi_rdata [24] $end
$var wire 1 U s00_axi_rdata [23] $end
$var wire 1 V s00_axi_rdata [22] $end
$var wire 1 W s00_axi_rdata [21] $end
$var wire 1 X s00_axi_rdata [20] $end
$var wire 1 Y s00_axi_rdata [19] $end
$var wire 1 Z s00_axi_rdata [18] $end
$var wire 1 [ s00_axi_rdata [17] $end
$var wire 1 \ s00_axi_rdata [16] $end
$var wire 1 ] s00_axi_rdata [15] $end
$var wire 1 ^ s00_axi_rdata [14] $end
$var wire 1 _ s00_axi_rdata [13] $end
$var wire 1 ` s00_axi_rdata [12] $end
$var wire 1 a s00_axi_rdata [11] $end
$var wire 1 b s00_axi_rdata [10] $end
$var wire 1 c s00_axi_rdata [9] $end
$var wire 1 d s00_axi_rdata [8] $end
$var wire 1 e s00_axi_rdata [7] $end
$var wire 1 f s00_axi_rdata [6] $end
$var wire 1 g s00_axi_rdata [5] $end
$var wire 1 h s00_axi_rdata [4] $end
$var wire 1 i s00_axi_rdata [3] $end
$var wire 1 j s00_axi_rdata [2] $end
$var wire 1 k s00_axi_rdata [1] $end
$var wire 1 l s00_axi_rdata [0] $end
$var wire 1 m s00_axi_rresp [1] $end
$var wire 1 n s00_axi_rresp [0] $end
$var wire 1 o s00_axi_rlast $end
$var wire 1 r s00_axi_ruser [-1] $end
$var wire 1 s s00_axi_ruser [0] $end
$var wire 1 p s00_axi_rvalid $end
$var wire 1 ?" s00_axi_rready $end

$scope module sha256_full_v1_0_S00_AXI_inst $end
$var parameter 32 @" C_S_AXI_ID_WIDTH $end
$var parameter 32 A" C_S_AXI_DATA_WIDTH $end
$var parameter 32 B" C_S_AXI_ADDR_WIDTH $end
$var parameter 32 C" C_S_AXI_AWUSER_WIDTH $end
$var parameter 32 D" C_S_AXI_ARUSER_WIDTH $end
$var parameter 32 E" C_S_AXI_WUSER_WIDTH $end
$var parameter 32 F" C_S_AXI_RUSER_WIDTH $end
$var parameter 32 G" C_S_AXI_BUSER_WIDTH $end
$var parameter 32 H" ADDR_LSB $end
$var parameter 32 I" OPT_MEM_ADDR_BITS $end
$var parameter 32 J" USER_NUM_MEM $end
$var wire 1 '! S_AXI_ACLK $end
$var wire 1 (! S_AXI_ARESETN $end
$var wire 1 )! S_AXI_AWID [0] $end
$var wire 1 *! S_AXI_AWADDR [7] $end
$var wire 1 +! S_AXI_AWADDR [6] $end
$var wire 1 ,! S_AXI_AWADDR [5] $end
$var wire 1 -! S_AXI_AWADDR [4] $end
$var wire 1 .! S_AXI_AWADDR [3] $end
$var wire 1 /! S_AXI_AWADDR [2] $end
$var wire 1 0! S_AXI_AWADDR [1] $end
$var wire 1 1! S_AXI_AWADDR [0] $end
$var wire 1 2! S_AXI_AWLEN [7] $end
$var wire 1 3! S_AXI_AWLEN [6] $end
$var wire 1 4! S_AXI_AWLEN [5] $end
$var wire 1 5! S_AXI_AWLEN [4] $end
$var wire 1 6! S_AXI_AWLEN [3] $end
$var wire 1 7! S_AXI_AWLEN [2] $end
$var wire 1 8! S_AXI_AWLEN [1] $end
$var wire 1 9! S_AXI_AWLEN [0] $end
$var wire 1 :! S_AXI_AWSIZE [2] $end
$var wire 1 ;! S_AXI_AWSIZE [1] $end
$var wire 1 <! S_AXI_AWSIZE [0] $end
$var wire 1 =! S_AXI_AWBURST [1] $end
$var wire 1 >! S_AXI_AWBURST [0] $end
$var wire 1 ?! S_AXI_AWLOCK $end
$var wire 1 @! S_AXI_AWCACHE [3] $end
$var wire 1 A! S_AXI_AWCACHE [2] $end
$var wire 1 B! S_AXI_AWCACHE [1] $end
$var wire 1 C! S_AXI_AWCACHE [0] $end
$var wire 1 D! S_AXI_AWPROT [2] $end
$var wire 1 E! S_AXI_AWPROT [1] $end
$var wire 1 F! S_AXI_AWPROT [0] $end
$var wire 1 G! S_AXI_AWQOS [3] $end
$var wire 1 H! S_AXI_AWQOS [2] $end
$var wire 1 I! S_AXI_AWQOS [1] $end
$var wire 1 J! S_AXI_AWQOS [0] $end
$var wire 1 K! S_AXI_AWREGION [3] $end
$var wire 1 L! S_AXI_AWREGION [2] $end
$var wire 1 M! S_AXI_AWREGION [1] $end
$var wire 1 N! S_AXI_AWREGION [0] $end
$var wire 1 r S_AXI_AWUSER [-1] $end
$var wire 1 s S_AXI_AWUSER [0] $end
$var wire 1 O! S_AXI_AWVALID $end
$var wire 1 5 S_AXI_AWREADY $end
$var wire 1 P! S_AXI_WDATA [31] $end
$var wire 1 Q! S_AXI_WDATA [30] $end
$var wire 1 R! S_AXI_WDATA [29] $end
$var wire 1 S! S_AXI_WDATA [28] $end
$var wire 1 T! S_AXI_WDATA [27] $end
$var wire 1 U! S_AXI_WDATA [26] $end
$var wire 1 V! S_AXI_WDATA [25] $end
$var wire 1 W! S_AXI_WDATA [24] $end
$var wire 1 X! S_AXI_WDATA [23] $end
$var wire 1 Y! S_AXI_WDATA [22] $end
$var wire 1 Z! S_AXI_WDATA [21] $end
$var wire 1 [! S_AXI_WDATA [20] $end
$var wire 1 \! S_AXI_WDATA [19] $end
$var wire 1 ]! S_AXI_WDATA [18] $end
$var wire 1 ^! S_AXI_WDATA [17] $end
$var wire 1 _! S_AXI_WDATA [16] $end
$var wire 1 `! S_AXI_WDATA [15] $end
$var wire 1 a! S_AXI_WDATA [14] $end
$var wire 1 b! S_AXI_WDATA [13] $end
$var wire 1 c! S_AXI_WDATA [12] $end
$var wire 1 d! S_AXI_WDATA [11] $end
$var wire 1 e! S_AXI_WDATA [10] $end
$var wire 1 f! S_AXI_WDATA [9] $end
$var wire 1 g! S_AXI_WDATA [8] $end
$var wire 1 h! S_AXI_WDATA [7] $end
$var wire 1 i! S_AXI_WDATA [6] $end
$var wire 1 j! S_AXI_WDATA [5] $end
$var wire 1 k! S_AXI_WDATA [4] $end
$var wire 1 l! S_AXI_WDATA [3] $end
$var wire 1 m! S_AXI_WDATA [2] $end
$var wire 1 n! S_AXI_WDATA [1] $end
$var wire 1 o! S_AXI_WDATA [0] $end
$var wire 1 p! S_AXI_WSTRB [3] $end
$var wire 1 q! S_AXI_WSTRB [2] $end
$var wire 1 r! S_AXI_WSTRB [1] $end
$var wire 1 s! S_AXI_WSTRB [0] $end
$var wire 1 t! S_AXI_WLAST $end
$var wire 1 r S_AXI_WUSER [-1] $end
$var wire 1 s S_AXI_WUSER [0] $end
$var wire 1 u! S_AXI_WVALID $end
$var wire 1 : S_AXI_WREADY $end
$var wire 1 ; S_AXI_BID [0] $end
$var wire 1 < S_AXI_BRESP [1] $end
$var wire 1 = S_AXI_BRESP [0] $end
$var wire 1 r S_AXI_BUSER [-1] $end
$var wire 1 s S_AXI_BUSER [0] $end
$var wire 1 > S_AXI_BVALID $end
$var wire 1 v! S_AXI_BREADY $end
$var wire 1 L S_AXI_ARID [0] $end
$var wire 1 w! S_AXI_ARADDR [7] $end
$var wire 1 x! S_AXI_ARADDR [6] $end
$var wire 1 y! S_AXI_ARADDR [5] $end
$var wire 1 z! S_AXI_ARADDR [4] $end
$var wire 1 {! S_AXI_ARADDR [3] $end
$var wire 1 |! S_AXI_ARADDR [2] $end
$var wire 1 }! S_AXI_ARADDR [1] $end
$var wire 1 ~! S_AXI_ARADDR [0] $end
$var wire 1 !" S_AXI_ARLEN [7] $end
$var wire 1 "" S_AXI_ARLEN [6] $end
$var wire 1 #" S_AXI_ARLEN [5] $end
$var wire 1 $" S_AXI_ARLEN [4] $end
$var wire 1 %" S_AXI_ARLEN [3] $end
$var wire 1 &" S_AXI_ARLEN [2] $end
$var wire 1 '" S_AXI_ARLEN [1] $end
$var wire 1 (" S_AXI_ARLEN [0] $end
$var wire 1 )" S_AXI_ARSIZE [2] $end
$var wire 1 *" S_AXI_ARSIZE [1] $end
$var wire 1 +" S_AXI_ARSIZE [0] $end
$var wire 1 ," S_AXI_ARBURST [1] $end
$var wire 1 -" S_AXI_ARBURST [0] $end
$var wire 1 ." S_AXI_ARLOCK $end
$var wire 1 /" S_AXI_ARCACHE [3] $end
$var wire 1 0" S_AXI_ARCACHE [2] $end
$var wire 1 1" S_AXI_ARCACHE [1] $end
$var wire 1 2" S_AXI_ARCACHE [0] $end
$var wire 1 3" S_AXI_ARPROT [2] $end
$var wire 1 4" S_AXI_ARPROT [1] $end
$var wire 1 5" S_AXI_ARPROT [0] $end
$var wire 1 6" S_AXI_ARQOS [3] $end
$var wire 1 7" S_AXI_ARQOS [2] $end
$var wire 1 8" S_AXI_ARQOS [1] $end
$var wire 1 9" S_AXI_ARQOS [0] $end
$var wire 1 :" S_AXI_ARREGION [3] $end
$var wire 1 ;" S_AXI_ARREGION [2] $end
$var wire 1 <" S_AXI_ARREGION [1] $end
$var wire 1 =" S_AXI_ARREGION [0] $end
$var wire 1 r S_AXI_ARUSER [-1] $end
$var wire 1 s S_AXI_ARUSER [0] $end
$var wire 1 >" S_AXI_ARVALID $end
$var wire 1 K S_AXI_ARREADY $end
$var wire 1 L S_AXI_RID [0] $end
$var wire 1 M S_AXI_RDATA [31] $end
$var wire 1 N S_AXI_RDATA [30] $end
$var wire 1 O S_AXI_RDATA [29] $end
$var wire 1 P S_AXI_RDATA [28] $end
$var wire 1 Q S_AXI_RDATA [27] $end
$var wire 1 R S_AXI_RDATA [26] $end
$var wire 1 S S_AXI_RDATA [25] $end
$var wire 1 T S_AXI_RDATA [24] $end
$var wire 1 U S_AXI_RDATA [23] $end
$var wire 1 V S_AXI_RDATA [22] $end
$var wire 1 W S_AXI_RDATA [21] $end
$var wire 1 X S_AXI_RDATA [20] $end
$var wire 1 Y S_AXI_RDATA [19] $end
$var wire 1 Z S_AXI_RDATA [18] $end
$var wire 1 [ S_AXI_RDATA [17] $end
$var wire 1 \ S_AXI_RDATA [16] $end
$var wire 1 ] S_AXI_RDATA [15] $end
$var wire 1 ^ S_AXI_RDATA [14] $end
$var wire 1 _ S_AXI_RDATA [13] $end
$var wire 1 ` S_AXI_RDATA [12] $end
$var wire 1 a S_AXI_RDATA [11] $end
$var wire 1 b S_AXI_RDATA [10] $end
$var wire 1 c S_AXI_RDATA [9] $end
$var wire 1 d S_AXI_RDATA [8] $end
$var wire 1 e S_AXI_RDATA [7] $end
$var wire 1 f S_AXI_RDATA [6] $end
$var wire 1 g S_AXI_RDATA [5] $end
$var wire 1 h S_AXI_RDATA [4] $end
$var wire 1 i S_AXI_RDATA [3] $end
$var wire 1 j S_AXI_RDATA [2] $end
$var wire 1 k S_AXI_RDATA [1] $end
$var wire 1 l S_AXI_RDATA [0] $end
$var wire 1 m S_AXI_RRESP [1] $end
$var wire 1 n S_AXI_RRESP [0] $end
$var wire 1 o S_AXI_RLAST $end
$var wire 1 r S_AXI_RUSER [-1] $end
$var wire 1 s S_AXI_RUSER [0] $end
$var wire 1 p S_AXI_RVALID $end
$var wire 1 ?" S_AXI_RREADY $end
$var reg 8 K" axi_awaddr [7:0] $end
$var reg 1 L" axi_awready $end
$var reg 1 M" axi_wready $end
$var reg 2 N" axi_bresp [1:0] $end
$var reg 2 O" axi_buser [-1:0] $end
$var reg 1 P" axi_bvalid $end
$var reg 8 Q" axi_araddr [7:0] $end
$var reg 1 R" axi_arready $end
$var reg 32 S" axi_rdata [31:0] $end
$var reg 2 T" axi_rresp [1:0] $end
$var reg 1 U" axi_rlast $end
$var reg 2 V" axi_ruser [-1:0] $end
$var reg 1 W" axi_rvalid $end
$var wire 1 X" aw_wrap_en $end
$var wire 1 Y" ar_wrap_en $end
$var wire 32 Z" aw_wrap_size [31:0] $end
$var wire 32 [" ar_wrap_size [31:0] $end
$var reg 1 \" axi_awv_awr_flag $end
$var reg 1 ]" axi_arv_arr_flag $end
$var reg 8 ^" axi_awlen_cntr [7:0] $end
$var reg 8 _" axi_arlen_cntr [7:0] $end
$var reg 2 `" axi_arburst [1:0] $end
$var reg 2 a" axi_awburst [1:0] $end
$var reg 8 b" axi_arlen [7:0] $end
$var reg 8 c" axi_awlen [7:0] $end
$var wire 6 d" mem_address [5:0] $end
$var wire 1 e" mem_select [0:0] $end

$scope begin BRAM_GEN[0] $end
$var parameter 32 f" i $end
$var wire 1 g" mem_rden $end
$var wire 1 h" mem_wren $end

$scope begin BYTE_BRAM_GEN[3] $end
$var parameter 32 i" mem_byte_index $end
$var wire 8 j" data_in [7:0] $end
$var wire 8 k" data_out [7:0] $end
$var integer 32 l" j $end
$upscope $end

$scope begin BYTE_BRAM_GEN[2] $end
$var parameter 32 m" mem_byte_index $end
$var wire 8 n" data_in [7:0] $end
$var wire 8 o" data_out [7:0] $end
$var integer 32 p" j $end
$upscope $end

$scope begin BYTE_BRAM_GEN[1] $end
$var parameter 32 q" mem_byte_index $end
$var wire 8 r" data_in [7:0] $end
$var wire 8 s" data_out [7:0] $end
$var integer 32 t" j $end
$upscope $end

$scope begin BYTE_BRAM_GEN[0] $end
$var parameter 32 u" mem_byte_index $end
$var wire 8 v" data_in [7:0] $end
$var wire 8 w" data_out [7:0] $end
$var integer 32 x" j $end
$upscope $end
$upscope $end
$upscope $end
$upscope $end
$upscope $end
$enddefinitions $end
#0
$dumpvars
0(
0)
b0 *
b0 +
b0 ,
b0 -
b0 .
0/
b0 0
b0 1
b0 2
b0 3
04
b0 6
b0 7
08
09
0?
b0 @
b0 A
b0 B
b0 C
b0 D
0E
b0 F
b0 G
b0 H
b0 I
0J
0q
bx K"
xL"
xM"
bx N"
bx O"
xP"
bx Q"
xR"
bx S"
bx T"
xU"
bx V"
xW"
x\"
x]"
bx ^"
bx _"
bx `"
bx a"
bx b"
bx c"
bx u
bx v
bx w
bx y
bx z
bx {
b1010 !
b1 "
b100000 #
b1000 $
b0 %
b1 &
b10 '
b1 }
b100000 ~
b1000 !!
b0 "!
b0 #!
b0 $!
b0 %!
b0 &!
b1 @"
b100000 A"
b1000 B"
b0 C"
b0 D"
b0 E"
b0 F"
b0 G"
b10 H"
b101 I"
b1 J"
b0 f"
b0 u"
b1 q"
b10 m"
b11 i"
bx Z"
bx ["
bx d"
b1 e"
b0 v"
bx w"
b0 r"
bx s"
b0 n"
bx o"
b0 j"
bx k"
bx x"
bx t"
bx p"
bx l"
bx t
bx x
bx |
x5
x:
0;
x=
x<
x>
xK
xL
xl
xk
xj
xi
xh
xg
xf
xe
xd
xc
xb
xa
x`
x_
x^
x]
x\
x[
xZ
xY
xX
xW
xV
xU
xT
xS
xR
xQ
xP
xO
xN
xM
xn
xm
xo
xp
xs
xr
xX"
xY"
xg"
0h"
0?"
0>"
0="
0<"
0;"
0:"
09"
08"
07"
06"
05"
04"
03"
02"
01"
00"
0/"
0."
0-"
0,"
0+"
0*"
0)"
0("
0'"
0&"
0%"
0$"
0#"
0""
0!"
0~!
0}!
0|!
0{!
0z!
0y!
0x!
0w!
0v!
0u!
0t!
0s!
0r!
0q!
0p!
0o!
0n!
0m!
0l!
0k!
0j!
0i!
0h!
0g!
0f!
0e!
0d!
0c!
0b!
0a!
0`!
0_!
0^!
0]!
0\!
0[!
0Z!
0Y!
0X!
0W!
0V!
0U!
0T!
0S!
0R!
0Q!
0P!
0O!
0N!
0M!
0L!
0K!
0J!
0I!
0H!
0G!
0F!
0E!
0D!
0C!
0B!
0A!
0@!
0?!
0>!
0=!
0<!
0;!
0:!
09!
08!
07!
06!
05!
04!
03!
02!
01!
00!
0/!
0.!
0-!
0,!
0+!
0*!
0)!
0(!
0'!
$end
#5000
1(
1'!
0L"
0\"
b0 K"
b0 ^"
b0 a"
b0 c"
0M"
0P"
b0 N"
b0 O"
0R"
0]"
b0 Q"
b0 _"
b0 `"
b0 b"
0U"
b0 V"
0W"
b0 T"
05
0:
0>
0K
0g"
0o
0p
0n
0m
0s
0r
b0 ["
0=
0<
b0 Z"
b0 d"
1Y"
1X"
b0 S"
0l
0k
0j
0i
0h
0g
0f
0e
0d
0c
0b
0a
0`
0_
0^
0]
0\
0[
0Z
0Y
0X
0W
0V
0U
0T
0S
0R
0Q
0P
0O
0N
0M
#10000
0(
0'!
#15000
1(
1'!
#20000
0(
0'!
#25000
1(
1'!
#30000
0(
0'!
#35000
1(
1'!
#40000
0(
0'!
#45000
1(
1'!
1)
b0 y
b100 z
b1 {
b11 ,
b1 .
b10 -
14
b0 |
b1 t
1(!
1;!
1>!
19!
18!
1O!
#50000
0(
0'!
#55000
1(
1'!
1L"
1\"
b1 a"
b11 c"
15
b1100 Z"
0X"
#60000
0(
0'!
#65000
1(
1'!
b0 ,
b0 .
b0 -
04
19
b1111 7
b1011101011011011111010101111 6
0O!
1u!
1o!
1n!
1m!
1l!
1j!
1h!
1f!
1e!
1d!
1c!
1b!
1`!
1_!
1]!
1\!
1Z!
1X!
1W!
1V!
1T!
1s!
1r!
1q!
1p!
0;!
0>!
09!
08!
b10101111 v"
b10111110 r"
b10101101 n"
b1011 j"
0L"
05
#70000
0(
0'!
#75000
1(
1'!
1M"
1h"
1:
#80000
0(
0'!
#85000
1(
1'!
b1 |
b11011101011011011111010101111 6
1S!
b11011 j"
b1 ^"
b100 K"
b1 d"
b1011 k"
b10101101 o"
b10111110 s"
b10101111 w"
bx w"
bx s"
bx o"
bx k"
#90000
0(
0'!
#95000
1(
1'!
b10 |
b101011101011011011111010101111 6
0S!
1R!
b101011 j"
b10 ^"
b1000 K"
b11011 k"
b10101111 w"
b10111110 s"
b10101101 o"
b10 d"
bx w"
bx s"
bx o"
bx k"
#100000
0(
0'!
#105000
1(
1'!
b11 |
18
b111011101011011011111010101111 6
1t!
1S!
b111011 j"
b11 ^"
b1100 K"
1X"
b101011 k"
b11 d"
b10101101 o"
b10111110 s"
b10101111 w"
bx w"
bx s"
bx o"
bx k"
#110000
0(
0'!
#115000
1(
1'!
b100 |
b0 6
b0 7
08
09
0s!
0r!
0q!
0p!
0o!
0n!
0m!
0l!
0j!
0h!
0f!
0e!
0d!
0c!
0b!
0`!
0_!
0]!
0\!
0Z!
0X!
0W!
0V!
0T!
0S!
0R!
0t!
0u!
0h"
b0 v"
b0 r"
b0 n"
b0 j"
b100 ^"
b10000 K"
0\"
0M"
1P"
0X"
b111011 k"
b10101111 w"
b10111110 s"
b10101101 o"
b0 d"
0:
1>
b1011 k"
#120000
0(
0'!
#125000
1(
1'!
1?
1v!
#130000
0(
0'!
#135000
1(
1'!
0?
b100 t
0v!
0P"
0>
#140000
0(
0'!
#145000
1(
1'!
#150000
0(
0'!
#155000
1(
1'!
#160000
0(
0'!
#165000
1(
1'!
#170000
0(
0'!
#175000
1(
1'!
b0 u
b100 v
b1 w
b11 B
b1 D
b10 C
1J
b0 x
b1 t
1*"
1-"
1("
1'"
1>"
#180000
0(
0'!
