sim/out/sha256_axi_lite.vcd
$date
	Wed Dec  8 02:10:42 2021
$end
$version
	Icarus Verilog
$end
$timescale
	1ps
$end
$scope module sha256_axi_lite_tb $end
$var wire 1 ! s_axi_aclk $end
$var wire 1 " s_axi_aresetn $end
$var wire 1 # s_axi_wready $end
$var wire 1 $ s_axi_rvalid $end
$var wire 2 % s_axi_rresp [1:0] $end
$var wire 32 & s_axi_rdata [31:0] $end
$var wire 1 ' s_axi_bvalid $end
$var wire 2 ( s_axi_bresp [1:0] $end
$var wire 1 ) s_axi_awready $end
$var wire 1 * s_axi_arready $end
$var wire 1 + irq_hash_finish $end
$var reg 1 , aclk $end
$var reg 1 " aresetn $end
$var reg 8 - s_axi_araddr [7:0] $end
$var reg 1 . s_axi_arvalid $end
$var reg 8 / s_axi_awaddr [7:0] $end
$var reg 1 0 s_axi_awvalid $end
$var reg 1 1 s_axi_bready $end
$var reg 1 2 s_axi_rready $end
$var reg 32 3 s_axi_wdata [31:0] $end
$var reg 4 4 s_axi_wstrb [3:0] $end
$var reg 1 5 s_axi_wvalid $end
$scope module sha256_v1_0_S00_AXI_inst $end
$var wire 1 ! S_AXI_ACLK $end
$var wire 8 6 S_AXI_ARADDR [7:0] $end
$var wire 1 " S_AXI_ARESETN $end
$var wire 3 7 S_AXI_ARPROT [2:0] $end
$var wire 1 * S_AXI_ARREADY $end
$var wire 1 . S_AXI_ARVALID $end
$var wire 8 8 S_AXI_AWADDR [7:0] $end
$var wire 3 9 S_AXI_AWPROT [2:0] $end
$var wire 1 ) S_AXI_AWREADY $end
$var wire 1 0 S_AXI_AWVALID $end
$var wire 1 1 S_AXI_BREADY $end
$var wire 2 : S_AXI_BRESP [1:0] $end
$var wire 1 ' S_AXI_BVALID $end
$var wire 32 ; S_AXI_RDATA [31:0] $end
$var wire 1 2 S_AXI_RREADY $end
$var wire 2 < S_AXI_RRESP [1:0] $end
$var wire 1 $ S_AXI_RVALID $end
$var wire 32 = S_AXI_WDATA [31:0] $end
$var wire 1 # S_AXI_WREADY $end
$var wire 4 > S_AXI_WSTRB [3:0] $end
$var wire 1 5 S_AXI_WVALID $end
$var wire 32 ? dat_lsb_i [31:0] $end
$var wire 1 @ dat_vaild_i $end
$var wire 1 + irq_hash_finish $end
$var wire 1 A rst_n $end
$var wire 1 B slv_reg_rden $end
$var wire 1 C slv_reg_wren $end
$var wire 32 D slv_reg0_nxt [31:0] $end
$var wire 1 E irq_finish $end
$var wire 1 F hash_busy_o $end
$var wire 32 G hash7 [31:0] $end
$var wire 32 H hash6 [31:0] $end
$var wire 32 I hash5 [31:0] $end
$var wire 32 J hash4 [31:0] $end
$var wire 32 K hash3 [31:0] $end
$var wire 32 L hash2 [31:0] $end
$var wire 32 M hash1 [31:0] $end
$var wire 32 N hash0 [31:0] $end
$var wire 1 O dat_addr_vaild $end
$var reg 1 P aw_en $end
$var reg 8 Q axi_araddr [7:0] $end
$var reg 1 R axi_arready $end
$var reg 8 S axi_awaddr [7:0] $end
$var reg 1 T axi_awready $end
$var reg 2 U axi_bresp [1:0] $end
$var reg 1 V axi_bvalid $end
$var reg 32 W axi_rdata [31:0] $end
$var reg 2 X axi_rresp [1:0] $end
$var reg 1 Y axi_rvalid $end
$var reg 1 Z axi_wready $end
$var reg 32 [ reg_data_out [31:0] $end
$var reg 32 \ slv_reg0 [31:0] $end
$var reg 32 ] slv_reg1 [31:0] $end
$var reg 32 ^ slv_reg2 [31:0] $end
$var reg 32 _ slv_reg3 [31:0] $end
$var integer 32 ` byte_index [31:0] $end
$scope module sha256_inst $end
$var wire 1 a chunk_clr $end
$var wire 1 ! clk $end
$var wire 32 b dat_lsb_i [31:0] $end
$var wire 1 @ dat_vaild_i $end
$var wire 1 F hash_busy_o $end
$var wire 1 A rst_n $end
$var wire 32 c w_out [31:0] $end
$var wire 1 d update_hash $end
$var wire 1 e next_state_is_proc $end
$var wire 32 f k_out [31:0] $end
$var wire 6 g k_addr [5:0] $end
$var wire 32 h hash7 [31:0] $end
$var wire 32 i hash6 [31:0] $end
$var wire 32 j hash5 [31:0] $end
$var wire 32 k hash4 [31:0] $end
$var wire 32 l hash3 [31:0] $end
$var wire 32 m hash2 [31:0] $end
$var wire 32 n hash1 [31:0] $end
$var wire 32 o hash0 [31:0] $end
$var wire 32 p dat_msb_i [31:0] $end
$var wire 8 q counter_nxt [7:0] $end
$var wire 1 r compress_start $end
$var reg 8 s counter [7:0] $end
$var reg 1 E irq_finish $end
$var reg 2 t state [1:0] $end
$var reg 2 u state_next [1:0] $end
$scope module sha256_chunk_compress_u2 $end
$var wire 32 v a [31:0] $end
$var wire 32 w b [31:0] $end
$var wire 32 x c [31:0] $end
$var wire 32 y ch [31:0] $end
$var wire 1 ! clk $end
$var wire 1 r compress_start $end
$var wire 32 z d [31:0] $end
$var wire 32 { e [31:0] $end
$var wire 32 | f [31:0] $end
$var wire 32 } g [31:0] $end
$var wire 32 ~ h [31:0] $end
$var wire 32 !" maj [31:0] $end
$var wire 1 A rst_n $end
$var wire 32 "" s0 [31:0] $end
$var wire 32 #" s1 [31:0] $end
$var wire 32 $" tmp1 [31:0] $end
$var wire 1 d update_hash $end
$var wire 32 %" w_in [31:0] $end
$var wire 32 &" tmp2 [31:0] $end
$var wire 32 '" k_in [31:0] $end
$var wire 32 (" hash7 [31:0] $end
$var wire 32 )" hash6 [31:0] $end
$var wire 32 *" hash5 [31:0] $end
$var wire 32 +" hash4 [31:0] $end
$var wire 32 ," hash3 [31:0] $end
$var wire 32 -" hash2 [31:0] $end
$var wire 32 ." hash1 [31:0] $end
$var wire 32 /" hash0 [31:0] $end
$var wire 32 0" e_rr6 [31:0] $end
$var wire 32 1" e_rr25 [31:0] $end
$var wire 32 2" e_rr11 [31:0] $end
$var wire 32 3" compress [31:0] $end
$var wire 32 4" a_rr22 [31:0] $end
$var wire 32 5" a_rr2 [31:0] $end
$var wire 32 6" a_rr13 [31:0] $end
$scope function lsb_to_msb $end
$var reg 32 7" lsb [31:0] $end
$var reg 32 8" lsb_to_msb [31:0] $end
$upscope $end
$scope begin chunk_compress_pipe[0] $end
$upscope $end
$scope begin chunk_compress_pipe[1] $end
$upscope $end
$scope begin chunk_compress_pipe[2] $end
$upscope $end
$scope begin chunk_compress_pipe[3] $end
$upscope $end
$scope begin chunk_compress_pipe[4] $end
$upscope $end
$scope begin chunk_compress_pipe[5] $end
$upscope $end
$scope begin chunk_compress_pipe[6] $end
$upscope $end
$scope begin chunk_compress_pipe[7] $end
$upscope $end
$upscope $end
$scope module sha256_chunk_process_u0 $end
$var wire 1 a clear $end
$var wire 1 ! clk $end
$var wire 32 9" dat_msb_i [31:0] $end
$var wire 1 @ dat_vaild_i $end
$var wire 1 :" pipeline_start $end
$var wire 1 e process_start $end
$var wire 1 A rst_n $end
$var wire 32 ;" w_m15 [31:0] $end
$var wire 32 <" w_m16 [31:0] $end
$var wire 32 =" w_m2 [31:0] $end
$var wire 32 >" w_m7 [31:0] $end
$var wire 32 ?" w_out [31:0] $end
$var wire 32 @" w_new [31:0] $end
$var wire 32 A" w_m2_rr19 [31:0] $end
$var wire 32 B" w_m2_rr17 [31:0] $end
$var wire 32 C" w_m2_r10 [31:0] $end
$var wire 32 D" w_m15_rr7 [31:0] $end
$var wire 32 E" w_m15_rr18 [31:0] $end
$var wire 32 F" w_m15_r3 [31:0] $end
$var wire 32 G" w_in [31:0] $end
$var reg 32 H" s0 [31:0] $end
$var reg 32 I" s1 [31:0] $end
$scope begin chunk_proc_pipeline[0] $end
$upscope $end
$scope begin chunk_proc_pipeline[1] $end
$upscope $end
$scope begin chunk_proc_pipeline[2] $end
$upscope $end
$scope begin chunk_proc_pipeline[3] $end
$upscope $end
$scope begin chunk_proc_pipeline[4] $end
$upscope $end
$scope begin chunk_proc_pipeline[5] $end
$upscope $end
$scope begin chunk_proc_pipeline[6] $end
$upscope $end
$scope begin chunk_proc_pipeline[7] $end
$upscope $end
$scope begin chunk_proc_pipeline[8] $end
$upscope $end
$scope begin chunk_proc_pipeline[9] $end
$upscope $end
$scope begin chunk_proc_pipeline[10] $end
$upscope $end
$scope begin chunk_proc_pipeline[11] $end
$upscope $end
$scope begin chunk_proc_pipeline[12] $end
$upscope $end
$scope begin chunk_proc_pipeline[13] $end
$upscope $end
$scope begin chunk_proc_pipeline[14] $end
$upscope $end
$upscope $end
$scope module sha256_k_u1 $end
$var wire 6 J" addr [5:0] $end
$var wire 1 A enable $end
$var wire 32 K" k_o [31:0] $end
$upscope $end
$upscope $end
$upscope $end
$scope task axil_read $end
$var reg 30 L" addr [29:0] $end
$var reg 32 M" temp_addr [31:0] $end
$var reg 32 N" value [31:0] $end
$upscope $end
$scope task axil_wait $end
$var integer 32 O" n [31:0] $end
$upscope $end
$scope task axil_write $end
$var reg 30 P" addr [29:0] $end
$var reg 32 Q" data [31:0] $end
$var reg 32 R" temp_addr [31:0] $end
$var integer 32 S" awready_ok [31:0] $end
$var integer 32 T" wready_ok [31:0] $end
$upscope $end
$scope task dump_sha256_result $end
$upscope $end
$upscope $end
$enddefinitions $end
#0
$dumpvars
bx T"
bx S"
bx R"
bx Q"
bx P"
b11 O"
bx N"
bx M"
bx L"
b0 K"
b110000 J"
b0 I"
b0 H"
b0 G"
b0 F"
b0 E"
b0 D"
b0 C"
b0 B"
b0 A"
b0 @"
b0 ?"
b0 >"
b0 ="
b0 <"
b0 ;"
0:"
b0 9"
b11001110011011110000001011011 8"
b1011011111000001100110100011001 7"
b110011001110110101000001001111 6"
b11011010100000100111100110011001 5"
b100111100110011001110110101000 4"
b0 3"
b1001111111010100010000111001010 2"
b10000111001010010011111110101000 1"
b11111101010001000011100101001001 0"
b1100111111001100000100101101010 /"
b10000101101011100110011110111011 ."
b1110010111100110110111000111100 -"
b111010111101010100111110100101 ,"
b1111111010100100000111001010001 +"
b10001100011010000000010110011011 *"
b10101011110110011000001100011111 )"
b11001110011011110000001011011 ("
b0 '"
b0 &"
b0 %"
b0 $"
b110101100001110010011100101011 #"
b11001110001000001011010001111110 ""
b111010011011111110011001100111 !"
b1011011111000001100110100011001 ~
b11111100000111101100110101011 }
b10011011000001010110100010001100 |
b1010001000011100101001001111111 {
b10100101010011111111010100111010 z
b11111100001011100100110001100 y
b111100011011101111001101110010 x
b10111011011001111010111010000101 w
b1101010000010011110011001100111 v
b0 u
b0 t
b0 s
0r
b0 q
b0 p
b1100111111001100000100101101010 o
b10000101101011100110011110111011 n
b1110010111100110110111000111100 m
b111010111101010100111110100101 l
b1111111010100100000111001010001 k
b10001100011010000000010110011011 j
b10101011110110011000001100011111 i
b11001110011011110000001011011 h
b110000 g
b0 f
0e
0d
b0 c
b0 b
1a
bx `
bx _
bx ^
bx ]
bx \
b0 [
xZ
xY
bx X
bx W
xV
bx U
xT
bx S
xR
bx Q
xP
xO
b1100111111001100000100101101010 N
b10000101101011100110011110111011 M
b1110010111100110110111000111100 L
b111010111101010100111110100101 K
b1111111010100100000111001010001 J
b10001100011010000000010110011011 I
b10101011110110011000001100011111 H
b11001110011011110000001011011 G
0F
0E
b0x0 D
0C
0B
0A
0@
b0 ?
b0 >
b0 =
bx <
bx ;
bx :
b0 9
b0 8
b0 7
b0 6
05
b0 4
b0 3
02
01
00
b0 /
0.
b0 -
0,
0+
x*
x)
bx (
x'
bx &
bx %
x$
x#
0"
0!
$end
#5000
b11001110011011110000001011011 8"
b1011011111000001100110100011001 7"
0O
b0 D
1P
0)
0T
b0 S
0#
0Z
b0 _
b0 ^
b0 ]
b0 \
b0 (
b0 :
b0 U
0'
0V
b0 Q
0*
0R
b0 %
b0 <
b0 X
0$
0Y
b0 &
b0 ;
b0 W
1!
1,
#10000
0!
0,
#15000
b11001110011011110000001011011 8"
b1011011111000001100110100011001 7"
1!
1,
#20000
0!
0,
#25000
b11001110011011110000001011011 8"
b1011011111000001100110100011001 7"
b11001101001001100000100010110 f
b11001101001001100000100010110 '"
b11001101001001100000100010110 K"
1A
1"
1!
1,
#30000
0!
0,
#35000
b11001110011011110000001011011 8"
b1011011111000001100110100011001 7"
b11001010100100100111111011100110 &"
b11010011001000110001100111001011 3"
b1000100100001001101011100101 $"
1!
1,
#40000
0!
0,
#45000
b11001110011011110000001011011 8"
b1011011111000001100110100011001 7"
1!
1,
#50000
0!
0,
#55000
b11001110011011110000001011011 8"
b1011011111000001100110100011001 7"
b11000000000000000000000000 G"
b11000000000000000000000000 p
b11000000000000000000000000 9"
b1 O"
11
b1111 4
b1111 >
b11 ?
b11 b
b11 3
b11 =
15
b0 R"
10
b0 T"
b0 S"
b11 Q"
b0 P"
1!
1,
#60000
0!
0,
#65000
1C
b11001110011011110000001011011 8"
b1011011111000001100110100011001 7"
0P
1)
1T
1#
1Z
1!
1,
#70000
0!
0,
#75000
b0 &"
b0 3"
b0 $"
b11 [
b0 f
b0 '"
b0 K"
0A
b11001110011011110000001011011 8"
b1011011111000001100110100011001 7"
b10 D
1'
1V
b11 \
0#
0Z
0)
0T
b0 G"
b0 p
b0 9"
0C
b0 4
b0 >
b0 ?
b0 b
b0 3
b0 =
05
b1 T"
00
b1 S"
b100 `
1!
1,
#80000
0!
0,
#85000
b10 [
b11001101001001100000100010110 f
b11001101001001100000100010110 '"
b11001101001001100000100010110 K"
1A
b11001110011011110000001011011 8"
b1011011111000001100110100011001 7"
1P
b10 \
0'
0V
01
1!
1,
#90000
0!
0,
#95000
b11001110011011110000001011011 8"
b1011011111000001100110100011001 7"
b11001010100100100111111011100110 &"
b11010011001000110001100111001011 3"
b1000100100001001101011100101 $"
b1100010001110010011010001100100 G"
b1100010001110010011010001100100 p
b1100010001110010011010001100100 9"
11
b1111 4
b1111 >
b1100100001101000011100101100010 ?
b1100100001101000011100101100010 b
b1100100001101000011100101100010 3
b1100100001101000011100101100010 =
15
b1000000 R"
b1000000 /
b1000000 8
10
b0 T"
b0 S"
b1100100001101000011100101100010 Q"
b10000 P"
1!
1,
#100000
0!
0,
#105000
b1 q
0a
1:"
b1 u
1@
1C
b11001110011011110000001011011 8"
b1011011111000001100110100011001 7"
1O
0P
1)
1T
b1000000 S
1#
1Z
1!
1,
#110000
0!
0,
#115000
b11110001101110110110000001000 f
b11110001101110110110000001000 '"
b11110001101110110110000001000 K"
b110001 g
b110001 J"
b11001110011011110000001011011 8"
b1011011111000001100110100011001 7"
b10011010001100100011000100011100 B"
b100110100011001000110001000111 A"
b110001000111001001101 C"
b1 t
b1 s
b1100010001110010011010001100100 ="
1'
1V
0#
0Z
0)
0T
0a
b1 q
0:"
b1 u
b0 G"
0@
b0 p
b0 9"
0C
b0 4
b0 >
b0 ?
b0 b
b0 3
b0 =
05
b1 T"
b0 /
b0 8
00
b1 S"
1!
1,
#120000
0!
0,
#125000
b11001110011011110000001011011 8"
b1011011111000001100110100011001 7"
b11010111101101011100010010111101 3"
b11001111001001010010100111011000 &"
1P
0'
0V
01
1!
1,
#130000
0!
0,
#135000
b11001110011011110000001011011 8"
b1011011111000001100110100011001 7"
b110010001101110110001000111001 G"
b110010001101110110001000111001 p
b110010001101110110001000111001 9"
11
b1111 4
b1111 >
b111001011000100011011100110010 ?
b111001011000100011011100110010 b
b111001011000100011011100110010 3
b111001011000100011011100110010 =
15
b1000000 /
b1000000 8
10
b0 T"
b0 S"
b111001011000100011011100110010 Q"
1!
1,
#140000
0!
0,
#145000
b10 q
1:"
1@
1C
b11001110011011110000001011011 8"
b1011011111000001100110100011001 7"
0P
1)
1T
1#
1Z
1!
1,
#150000
0!
0,
#155000
b100111010010000111011101001100 f
b100111010010000111011101001100 '"
b100111010010000111011101001100 K"
b110010 g
b110010 J"
b11001110011011110000001011011 8"
b1011011111000001100110100011001 7"
b10110001000111001001100100011011 B"
b11101100010001110010011001000110 A"
b11001000110111011000 C"
b10 s
b110010001101110110001000111001 ="
b10111100101001100011001100010110 @"
b10111100101001100011001100010110 I"
1'
1V
0#
0Z
0)
0T
b10 q
0:"
b0 G"
0@
b0 p
b0 9"
0C
b0 4
b0 >
b0 ?
b0 b
b0 3
b0 =
05
b1 T"
b0 /
b0 8
00
b1 S"
1!
1,
#160000
0!
0,
#165000
b11001110011011110000001011011 8"
b1011011111000001100110100011001 7"
b11100000110001101101000000000001 3"
b11011000001101100011010100011100 &"
1P
0'
0V
01
1!
1,
#170000
0!
0,
#175000
b11001110011011110000001011011 8"
b1011011111000001100110100011001 7"
b111001001100110011010001100100 G"
b111001001100110011010001100100 p
b111001001100110011010001100100 9"
11
b1111 4
b1111 >
b1100100001101000011001100111001 ?
b1100100001101000011001100111001 b
b1100100001101000011001100111001 3
b1100100001101000011001100111001 =
15
b1000000 /
b1000000 8
10
b0 T"
b0 S"
b1100100001101000011001100111001 Q"
1!
1,
#180000
0!
0,
#185000
b11 q
1:"
1@
1C
b11001110011011110000001011011 8"
b1011011111000001100110100011001 7"
0P
1)
1T
1#
1Z
1!
1,
#190000
0!
0,
#195000
b110100101100001011110010110101 f
b110100101100001011110010110101 '"
b110100101100001011110010110101 K"
b110011 g
b110011 J"
b11001110011011110000001011011 8"
b1011011111000001100110100011001 7"
b10011010001100100001110010011001 B"
b1100110100011001000011100100110 A"
b11100100110011001101 C"
b11 s
b111001001100110011010001100100 ="
b1011101010101110011001010000101 @"
b1011101010101110011001010000101 I"
1'
1V
0#
0Z
0)
0T
b11 q
0:"
b0 G"
0@
b0 p
b0 9"
0C
b0 4
b0 >
b0 ?
b0 b
b0 3
b0 =
05
b1 T"
b0 /
b0 8
00
b1 S"
1!
1,
#200000
0!
0,
#205000
b11001110011011110000001011011 8"
b1011011111000001100110100011001 7"
b11101110001011110001010101101010 3"
b11100101100111100111101010000101 &"
1P
0'
0V
01
1!
1,
#210000
0!
0,
#215000
b11001110011011110000001011011 8"
b1011011111000001100110100011001 7"
b110011011001010011000000111000 G"
b110011011001010011000000111000 p
b110011011001010011000000111000 9"
11
b1111 4
b1111 >
b111000001100000110010100110011 ?
b111000001100000110010100110011 b
b111000001100000110010100110011 3
b111000001100000110010100110011 =
15
b1000000 /
b1000000 8
10
b0 T"
b0 S"
b111000001100000110010100110011 Q"
1!
1,
#220000
0!
0,
#225000
b100 q
1:"
1@
1C
b11001110011011110000001011011 8"
b1011011111000001100110100011001 7"
0P
1)
1T
1#
1Z
1!
1,
#230000
0!
0,
#235000
b111001000111000000110010110011 f
b111001000111000000110010110011 '"
b111001000111000000110010110011 K"
b110100 g
b110100 J"
b11001110011011110000001011011 8"
b1011011111000001100110100011001 7"
b10011000000111000001100110110010 B"
b10100110000001110000011001101100 A"
b11001101100101001100 C"
b100 s
b110011011001010011000000111000 ="
b11111100101100001101011101110010 @"
b11111100101100001101011101110010 I"
1'
1V
0#
0Z
0)
0T
b100 q
0:"
b0 G"
0@
b0 p
b0 9"
0C
b0 4
b0 >
b0 ?
b0 b
b0 3
b0 =
05
b1 T"
b0 /
b0 8
00
b1 S"
1!
1,
#240000
0!
0,
#245000
b11001110011011110000001011011 8"
b1011011111000001100110100011001 7"
b11110010100110100110010101101000 3"
b11101010000010011100101010000011 &"
1P
0'
0V
01
1!
1,
#250000
0!
0,
#255000
b11001110011011110000001011011 8"
b1011011111000001100110100011001 7"
b1100001001101010011001001100101 G"
b1100001001101010011001001100101 p
b1100001001101010011001001100101 9"
11
b1111 4
b1111 >
b1100101001100100011010101100001 ?
b1100101001100100011010101100001 b
b1100101001100100011010101100001 3
b1100101001100100011010101100001 =
15
b1000000 /
b1000000 8
10
b0 T"
b0 S"
b1100101001100100011010101100001 Q"
1!
1,
#260000
0!
0,
#265000
b101 q
1:"
1@
1C
b11001110011011110000001011011 8"
b1011011111000001100110100011001 7"
0P
1)
1T
1#
1Z
1!
1,
#270000
0!
0,
#275000
b1001110110110001010101001001010 f
b1001110110110001010101001001010 '"
b1001110110110001010101001001010 K"
b110101 g
b110101 J"
b11001110011011110000001011011 8"
b1011011111000001100110100011001 7"
b10011001001100101011000010011010 B"
b10100110010011001010110000100110 A"
b110000100110101001100 C"
b101 s
b1100001001101010011001001100101 ="
b111110000101111100011010010010 @"
b111110000101111100011010010010 I"
1'
1V
0#
0Z
0)
0T
b101 q
0:"
b0 G"
0@
b0 p
b0 9"
0C
b0 4
b0 >
b0 ?
b0 b
b0 3
b0 =
05
b1 T"
b0 /
b0 8
00
b1 S"
1!
1,
#280000
0!
0,
#285000
b11001110011011110000001011011 8"
b1011011111000001100110100011001 7"
b1000010101110000001011111111 3"
b11111111110001100110100000011010 &"
1P
0'
0V
01
1!
1,
#290000
0!
0,
#295000
b11001110011011110000001011011 8"
b1011011111000001100110100011001 7"
b110101001100100110010000110111 G"
b110101001100100110010000110111 p
b110101001100100110010000110111 9"
11
b1111 4
b1111 >
b110111011001000011001000110101 ?
b110111011001000011001000110101 b
b110111011001000011001000110101 3
b110111011001000011001000110101 =
15
b1000000 /
b1000000 8
10
b0 T"
b0 S"
b110111011001000011001000110101 Q"
1!
1,
#300000
0!
0,
#305000
b110 q
1:"
1@
1C
b11001110011011110000001011011 8"
b1011011111000001100110100011001 7"
0P
1)
1T
1#
1Z
1!
1,
#310000
0!
0,
#315000
b1011011100111001100101001001111 f
b1011011100111001100101001001111 '"
b1011011100111001100101001001111 K"
b110110 g
b110110 J"
b11001110011011110000001011011 8"
b1011011111000001100110100011001 7"
b110010000110111001101010011001 B"
b1001100100001101110011010100110 A"
b11010100110010011001 C"
b110 s
b110101001100100110010000110111 ="
b111111011001100101000111110000 @"
b111111011001100101000111110000 I"
1'
1V
0#
0Z
0)
0T
b110 q
0:"
b0 G"
0@
b0 p
b0 9"
0C
b0 4
b0 >
b0 ?
b0 b
b0 3
b0 =
05
b1 T"
b0 /
b0 8
00
b1 S"
1!
1,
#320000
0!
0,
#325000
b11001110011011110000001011011 8"
b1011011111000001100110100011001 7"
b10101000110110010001100000100 3"
b1100100010101000100000011111 &"
1P
0'
0V
01
1!
1,
#330000
0!
0,
#335000
b11001110011011110000001011011 8"
b1011011111000001100110100011001 7"
b1100100011000010011011101100100 G"
b1100100011000010011011101100100 p
b1100100011000010011011101100100 9"
11
b1111 4
b1111 >
b1100100001101110110000101100100 ?
b1100100001101110110000101100100 b
b1100100001101110110000101100100 3
b1100100001101110110000101100100 =
15
b1000000 /
b1000000 8
10
b0 T"
b0 S"
b1100100001101110110000101100100 Q"
1!
1,
#340000
0!
0,
#345000
b111 q
1:"
1@
1C
b11001110011011110000001011011 8"
b1011011111000001100110100011001 7"
0P
1)
1T
1#
1Z
1!
1,
#350000
0!
0,
#355000
b1101000001011100110111111110011 f
b1101000001011100110111111110011 '"
b1101000001011100110111111110011 K"
b110111 g
b110111 J"
b11001110011011110000001011011 8"
b1011011111000001100110100011001 7"
b10011011101100100011001000110000 B"
b100110111011001000110010001100 A"
b110010001100001001101 C"
b111 s
b1100100011000010011011101100100 ="
b1111110100100000011000010100110 I"
b11100000110010010110010100001010 @"
b1100010001110010011010001100100 >"
1'
1V
0#
0Z
0)
0T
b111 q
0:"
b0 G"
0@
b0 p
b0 9"
0C
b0 4
b0 >
b0 ?
b0 b
b0 3
b0 =
05
b1 T"
b0 /
b0 8
00
b1 S"
1!
1,
#360000
0!
0,
#365000
b11001110011011110000001011011 8"
b1011011111000001100110100011001 7"
b100001101011001100100010101000 3"
b11001000111000010110111000011 &"
1P
0'
0V
01
1!
1,
#370000
0!
0,
#375000
b11001110011011110000001011011 8"
b1011011111000001100110100011001 7"
b1100001011000100110011001100001 G"
b1100001011000100110011001100001 p
b1100001011000100110011001100001 9"
11
b1111 4
b1111 >
b1100001011001100110001001100001 ?
b1100001011001100110001001100001 b
b1100001011001100110001001100001 3
b1100001011001100110001001100001 =
15
b1000000 /
b1000000 8
10
b0 T"
b0 S"
b1100001011001100110001001100001 Q"
1!
1,
#380000
0!
0,
#385000
b1000 q
1:"
1@
1C
b11001110011011110000001011011 8"
b1011011111000001100110100011001 7"
0P
1)
1T
1#
1Z
1!
1,
#390000
0!
0,
#395000
b1110100100011111000001011101110 f
b1110100100011111000001011101110 '"
b1110100100011111000001011101110 K"
b111000 g
b111000 J"
b11001110011011110000001011011 8"
b1011011111000001100110100011001 7"
b110011001100001011000010110001 B"
b1001100110011000010110000101100 A"
b110000101100010011001 C"
b1000 s
b1100001011000100110011001100001 ="
b10111101010001111010011011110001 I"
b11101111011111110000100100101010 @"
b110010001101110110001000111001 >"
1'
1V
0#
0Z
0)
0T
b1000 q
0:"
b0 G"
0@
b0 p
b0 9"
0C
b0 4
b0 >
b0 ?
b0 b
b0 3
b0 =
05
b1 T"
b0 /
b0 8
00
b1 S"
1!
1,
#400000
0!
0,
#405000
b11001110011011110000001011011 8"
b1011011111000001100110100011001 7"
b101110000011011101101110100011 3"
b100101011111010100000010111110 &"
1P
0'
0V
01
1!
1,
#410000
0!
0,
#415000
b11001110011011110000001011011 8"
b1011011111000001100110100011001 7"
b1100011001101000011100000110100 G"
b1100011001101000011100000110100 p
b1100011001101000011100000110100 9"
11
b1111 4
b1111 >
b110100001110000011010001100011 ?
b110100001110000011010001100011 b
b110100001110000011010001100011 3
b110100001110000011010001100011 =
15
b1000000 /
b1000000 8
10
b0 T"
b0 S"
b110100001110000011010001100011 Q"
1!
1,
#420000
0!
0,
#425000
b1001 q
1:"
1@
1C
b11001110011011110000001011011 8"
b1011011111000001100110100011001 7"
0P
1)
1T
1#
1Z
1!
1,
#430000
0!
0,
#435000
b1111000101001010110001101101111 f
b1111000101001010110001101101111 '"
b1111000101001010110001101101111 K"
b111001 g
b111001 J"
b11001110011011110000001011011 8"
b1011011111000001100110100011001 7"
b11100000110100011000110011010 B"
b10000111000001101000110001100110 A"
b110001100110100001110 C"
b1001 s
b1100011001101000011100000110100 ="
b1111111111001001100010000000100 I"
b10111001000101111111100001101000 @"
b111001001100110011010001100100 >"
1'
1V
0#
0Z
0)
0T
b1001 q
0:"
b0 G"
0@
b0 p
b0 9"
0C
b0 4
b0 >
b0 ?
b0 b
b0 3
b0 =
05
b1 T"
b0 /
b0 8
00
b1 S"
1!
1,
#440000
0!
0,
#445000
b11001110011011110000001011011 8"
b1011011111000001100110100011001 7"
b110010001000111011110000100100 3"
b101001100100110010000100111111 &"
1P
0'
0V
01
1!
1,
#450000
0!
0,
#455000
b11001110011011110000001011011 8"
b1011011111000001100110100011001 7"
b1100101011001100110010100110011 G"
b1100101011001100110010100110011 p
b1100101011001100110010100110011 9"
11
b1111 4
b1111 >
b110011011001010110011001100101 ?
b110011011001010110011001100101 b
b110011011001010110011001100101 3
b110011011001010110011001100101 =
15
b1000000 /
b1000000 8
10
b0 T"
b0 S"
b110011011001010110011001100101 Q"
1!
1,
#460000
0!
0,
#465000
b1010 q
1:"
1@
1C
b11001110011011110000001011011 8"
b1011011111000001100110100011001 7"
0P
1)
1T
1#
1Z
1!
1,
#470000
0!
0,
#475000
b10000100110010000111100000010100 f
b10000100110010000111100000010100 '"
b10000100110010000111100000010100 K"
b111010 g
b111010 J"
b11001110011011110000001011011 8"
b1011011111000001100110100011001 7"
b110010100110011011001010110011 B"
b11001100101001100110110010101100 A"
b110010101100110011001 C"
b1010 s
b1100101011001100110010100110011 ="
b10011011000001000111000011110010 I"
b11001110011010011010000100101010 @"
b110011011001010011000000111000 >"
1'
1V
0#
0Z
0)
0T
b1010 q
0:"
b0 G"
0@
b0 p
b0 9"
0C
b0 4
b0 >
b0 ?
b0 b
b0 3
b0 =
05
b1 T"
b0 /
b0 8
00
b1 S"
1!
1,
#480000
0!
0,
#485000
b11001110011011110000001011011 8"
b1011011111000001100110100011001 7"
b111110010001101101000011001001 3"
b110101101101100011010111100100 &"
1P
0'
0V
01
1!
1,
#490000
0!
0,
#495000
b11001110011011110000001011011 8"
b1011011111000001100110100011001 7"
b110111011000010011010100110011 G"
b110111011000010011010100110011 p
b110111011000010011010100110011 9"
11
b1111 4
b1111 >
b110011001101010110000100110111 ?
b110011001101010110000100110111 b
b110011001101010110000100110111 3
b110011001101010110000100110111 =
15
b1000000 /
b1000000 8
10
b0 T"
b0 S"
b110011001101010110000100110111 Q"
1!
1,
#500000
0!
0,
#505000
b1011 q
1:"
1@
1C
b11001110011011110000001011011 8"
b1011011111000001100110100011001 7"
0P
1)
1T
1#
1Z
1!
1,
#510000
0!
0,
#515000
b10001100110001110000001000001000 f
b10001100110001110000001000001000 '"
b10001100110001110000001000001000 K"
b111011 g
b111011 J"
b11001110011011110000001011011 8"
b1011011111000001100110100011001 7"
b10011010100110011001101110110000 B"
b100110101001100110011011101100 A"
b11011101100001001101 C"
b1011 s
b110111011000010011010100110011 ="
b11111110001001101000011110000110 I"
b1011111010110111011100111101011 @"
b1100001001101010011001001100101 >"
1'
1V
0#
0Z
0)
0T
b1011 q
0:"
b0 G"
0@
b0 p
b0 9"
0C
b0 4
b0 >
b0 ?
b0 b
b0 3
b0 =
05
b1 T"
b0 /
b0 8
00
b1 S"
1!
1,
#520000
0!
0,
#525000
b11001110011011110000001011011 8"
b1011011111000001100110100011001 7"
b1000110010001010101101010111101 3"
b111101101101001011111111011000 &"
1P
0'
0V
01
1!
1,
#530000
0!
0,
#535000
b11001110011011110000001011011 8"
b1011011111000001100110100011001 7"
b111000001100000110010101100101 G"
b111000001100000110010101100101 p
b111000001100000110010101100101 9"
11
b1111 4
b1111 >
b1100101011001010011000000111000 ?
b1100101011001010011000000111000 b
b1100101011001010011000000111000 3
b1100101011001010011000000111000 =
15
b1000000 /
b1000000 8
10
b0 T"
b0 S"
b1100101011001010011000000111000 Q"
1!
1,
#540000
0!
0,
#545000
b1100 q
1:"
1@
1C
b11001110011011110000001011011 8"
b1011011111000001100110100011001 7"
0P
1)
1T
1#
1Z
1!
1,
#550000
0!
0,
