sim/out/wave_old.vcd
$date
	Sat Dec  4 00:41:20 2021
$end
$version
	Icarus Verilog
$end
$timescale
	1ps
$end
$scope module tb_axi_sha256 $end
$var wire 1 ! s_axi_aclk $end
$var wire 1 " s_axi_aresetn $end
$var wire 1 # s_axi_wready $end
$var wire 1 $ s_axi_rvalid $end
$var wire 2 % s_axi_rresp [1:0] $end
$var wire 32 & s_axi_rdata [31:0] $end
$var wire 1 ' s_axi_bvalid $end
$var wire 2 ( s_axi_bresp [1:0] $end
$var wire 1 ) s_axi_awready $end
$var wire 1 * s_axi_arready $end
$var wire 1 + irq_hash_finish $end
$var reg 1 , aclk $end
$var reg 1 " aresetn $end
$var reg 8 - s_axi_araddr [7:0] $end
$var reg 1 . s_axi_arvalid $end
$var reg 8 / s_axi_awaddr [7:0] $end
$var reg 1 0 s_axi_awvalid $end
$var reg 1 1 s_axi_bready $end
$var reg 1 2 s_axi_rready $end
$var reg 32 3 s_axi_wdata [31:0] $end
$var reg 4 4 s_axi_wstrb [3:0] $end
$var reg 1 5 s_axi_wvalid $end
$scope module sha256_v1_0_S00_AXI_inst $end
$var wire 1 ! S_AXI_ACLK $end
$var wire 8 6 S_AXI_ARADDR [7:0] $end
$var wire 1 " S_AXI_ARESETN $end
$var wire 3 7 S_AXI_ARPROT [2:0] $end
$var wire 1 * S_AXI_ARREADY $end
$var wire 1 . S_AXI_ARVALID $end
$var wire 8 8 S_AXI_AWADDR [7:0] $end
$var wire 3 9 S_AXI_AWPROT [2:0] $end
$var wire 1 ) S_AXI_AWREADY $end
$var wire 1 0 S_AXI_AWVALID $end
$var wire 1 1 S_AXI_BREADY $end
$var wire 2 : S_AXI_BRESP [1:0] $end
$var wire 1 ' S_AXI_BVALID $end
$var wire 32 ; S_AXI_RDATA [31:0] $end
$var wire 1 2 S_AXI_RREADY $end
$var wire 2 < S_AXI_RRESP [1:0] $end
$var wire 1 $ S_AXI_RVALID $end
$var wire 32 = S_AXI_WDATA [31:0] $end
$var wire 1 # S_AXI_WREADY $end
$var wire 4 > S_AXI_WSTRB [3:0] $end
$var wire 1 5 S_AXI_WVALID $end
$var wire 32 ? dat_lsb_i [31:0] $end
$var wire 1 @ dat_vaild_i $end
$var wire 1 + irq_hash_finish $end
$var wire 1 A rst_n $end
$var wire 1 B slv_reg_rden $end
$var wire 1 C slv_reg_wren $end
$var wire 32 D slv_reg0_nxt [31:0] $end
$var wire 1 E irq_finish $end
$var wire 1 F hash_busy_o $end
$var wire 32 G hash7 [31:0] $end
$var wire 32 H hash6 [31:0] $end
$var wire 32 I hash5 [31:0] $end
$var wire 32 J hash4 [31:0] $end
$var wire 32 K hash3 [31:0] $end
$var wire 32 L hash2 [31:0] $end
$var wire 32 M hash1 [31:0] $end
$var wire 32 N hash0 [31:0] $end
$var wire 1 O dat_addr_vaild $end
$var reg 1 P aw_en $end
$var reg 8 Q axi_araddr [7:0] $end
$var reg 1 R axi_arready $end
$var reg 8 S axi_awaddr [7:0] $end
$var reg 1 T axi_awready $end
$var reg 2 U axi_bresp [1:0] $end
$var reg 1 V axi_bvalid $end
$var reg 32 W axi_rdata [31:0] $end
$var reg 2 X axi_rresp [1:0] $end
$var reg 1 Y axi_rvalid $end
$var reg 1 Z axi_wready $end
$var reg 32 [ reg_data_out [31:0] $end
$var reg 32 \ slv_reg0 [31:0] $end
$var reg 32 ] slv_reg1 [31:0] $end
$var reg 32 ^ slv_reg2 [31:0] $end
$var reg 32 _ slv_reg3 [31:0] $end
$var integer 32 ` byte_index [31:0] $end
$scope module sha256_inst $end
$var wire 1 a chunk_clr $end
$var wire 1 ! clk $end
$var wire 32 b dat_lsb_i [31:0] $end
$var wire 1 @ dat_vaild_i $end
$var wire 1 F hash_busy_o $end
$var wire 1 A rst_n $end
$var wire 32 c w_out [31:0] $end
$var wire 1 d state_is_proc $end
$var wire 32 e k_out [31:0] $end
$var wire 6 f k_addr [5:0] $end
$var wire 32 g hash7 [31:0] $end
$var wire 32 h hash6 [31:0] $end
$var wire 32 i hash5 [31:0] $end
$var wire 32 j hash4 [31:0] $end
$var wire 32 k hash3 [31:0] $end
$var wire 32 l hash2 [31:0] $end
$var wire 32 m hash1 [31:0] $end
$var wire 32 n hash0 [31:0] $end
$var wire 32 o dat_msb_i [31:0] $end
$var wire 1 p chunk_compress_update $end
$var reg 8 q counter [7:0] $end
$var reg 1 E irq_finish $end
$var reg 2 r state [1:0] $end
$var reg 2 s state_next [1:0] $end
$scope module sha256_chunk_compress_u2 $end
$var wire 32 t a [31:0] $end
$var wire 32 u b [31:0] $end
$var wire 32 v c [31:0] $end
$var wire 32 w ch [31:0] $end
$var wire 1 ! clk $end
$var wire 32 x d [31:0] $end
$var wire 32 y e [31:0] $end
$var wire 1 d enable $end
$var wire 32 z f [31:0] $end
$var wire 32 { g [31:0] $end
$var wire 32 | h [31:0] $end
$var wire 32 } maj [31:0] $end
$var wire 1 A rst_n $end
$var wire 32 ~ s0 [31:0] $end
$var wire 32 !" s1 [31:0] $end
$var wire 1 p update $end
$var wire 32 "" w_in [31:0] $end
$var wire 32 #" tmp2 [31:0] $end
$var wire 32 $" tmp1 [31:0] $end
$var wire 32 %" k_in [31:0] $end
$var wire 32 &" hash7 [31:0] $end
$var wire 32 '" hash6 [31:0] $end
$var wire 32 (" hash5 [31:0] $end
$var wire 32 )" hash4 [31:0] $end
$var wire 32 *" hash3 [31:0] $end
$var wire 32 +" hash2 [31:0] $end
$var wire 32 ," hash1 [31:0] $end
$var wire 32 -" hash0 [31:0] $end
$var wire 32 ." e_rr6 [31:0] $end
$var wire 32 /" e_rr25 [31:0] $end
$var wire 32 0" e_rr11 [31:0] $end
$var wire 32 1" a_rr22 [31:0] $end
$var wire 32 2" a_rr2 [31:0] $end
$var wire 32 3" a_rr13 [31:0] $end
$scope function lsb_to_msb $end
$var reg 32 4" lsb [31:0] $end
$var reg 32 5" lsb_to_msb [31:0] $end
$upscope $end
$scope begin chunk_compress_pipe[1] $end
$upscope $end
$scope begin chunk_compress_pipe[2] $end
$upscope $end
$scope begin chunk_compress_pipe[3] $end
$upscope $end
$upscope $end
$scope module sha256_chunk_process_u0 $end
$var wire 1 a clear $end
$var wire 1 ! clk $end
$var wire 32 6" dat_msb_i [31:0] $end
$var wire 1 @ dat_vaild_i $end
$var wire 1 7" enable $end
$var wire 1 d proc_ninit $end
$var wire 1 A rst_n $end
$var wire 32 8" s0 [31:0] $end
$var wire 32 9" s1 [31:0] $end
$var wire 32 :" w_m15 [31:0] $end
$var wire 32 ;" w_m16 [31:0] $end
$var wire 32 <" w_m2 [31:0] $end
$var wire 32 =" w_m7 [31:0] $end
$var wire 32 >" w_out [31:0] $end
$var wire 32 ?" w_new [31:0] $end
$var wire 32 @" w_m2_rr19 [31:0] $end
$var wire 32 A" w_m2_rr17 [31:0] $end
$var wire 32 B" w_m2_r10 [31:0] $end
$var wire 32 C" w_m15_rr7 [31:0] $end
$var wire 32 D" w_m15_rr18 [31:0] $end
$var wire 32 E" w_m15_r3 [31:0] $end
$var wire 32 F" w_in [31:0] $end
$scope begin chunk_proc_pipeline[0] $end
$upscope $end
$scope begin chunk_proc_pipeline[1] $end
$upscope $end
$scope begin chunk_proc_pipeline[2] $end
$upscope $end
$scope begin chunk_proc_pipeline[3] $end
$upscope $end
$scope begin chunk_proc_pipeline[4] $end
$upscope $end
$scope begin chunk_proc_pipeline[5] $end
$upscope $end
$scope begin chunk_proc_pipeline[6] $end
$upscope $end
$scope begin chunk_proc_pipeline[7] $end
$upscope $end
$scope begin chunk_proc_pipeline[8] $end
$upscope $end
$scope begin chunk_proc_pipeline[9] $end
$upscope $end
$scope begin chunk_proc_pipeline[10] $end
$upscope $end
$scope begin chunk_proc_pipeline[11] $end
$upscope $end
$scope begin chunk_proc_pipeline[12] $end
$upscope $end
$scope begin chunk_proc_pipeline[13] $end
$upscope $end
$scope begin chunk_proc_pipeline[14] $end
$upscope $end
$upscope $end
$scope module sha256_k_u1 $end
$var wire 6 G" addr [5:0] $end
$var wire 1 d enable $end
$var wire 32 H" k_o [31:0] $end
$upscope $end
$upscope $end
$upscope $end
$scope task axil_read $end
$var reg 30 I" addr [29:0] $end
$var reg 32 J" temp_addr [31:0] $end
$var reg 32 K" value [31:0] $end
$upscope $end
$scope task axil_wait $end
$var integer 32 L" n [31:0] $end
$upscope $end
$scope task axil_write $end
$var reg 30 M" addr [29:0] $end
$var reg 32 N" data [31:0] $end
$var reg 32 O" temp_addr [31:0] $end
$var integer 32 P" awready_ok [31:0] $end
$var integer 32 Q" wready_ok [31:0] $end
$upscope $end
$scope task dump_sha256_result $end
$upscope $end
$upscope $end
$enddefinitions $end
#0
$dumpvars
bx Q"
bx P"
bx O"
bx N"
bx M"
b11 L"
bx K"
bx J"
bx I"
b0 H"
b110000 G"
b0 F"
b0 E"
b0 D"
b0 C"
b0 B"
b0 A"
b0 @"
b0 ?"
b0 >"
b0 ="
b0 <"
b0 ;"
b0 :"
b0 9"
b0 8"
07"
b0 6"
b11001110011011110000001011011 5"
b1011011111000001100110100011001 4"
b0 3"
b0 2"
b0 1"
b0 0"
b0 /"
b0 ."
b1100111111001100000100101101010 -"
b10000101101011100110011110111011 ,"
b1110010111100110110111000111100 +"
b111010111101010100111110100101 *"
b1111111010100100000111001010001 )"
b10001100011010000000010110011011 ("
b10101011110110011000001100011111 '"
b11001110011011110000001011011 &"
b0 %"
b0 $"
b0 #"
b0 ""
b0 !"
b0 ~
b0 }
b0 |
b0 {
b0 z
b0 y
b0 x
b0 w
b0 v
b0 u
b0 t
b0 s
b0 r
b0 q
0p
b0 o
b1100111111001100000100101101010 n
b10000101101011100110011110111011 m
b1110010111100110110111000111100 l
b111010111101010100111110100101 k
b1111111010100100000111001010001 j
b10001100011010000000010110011011 i
b10101011110110011000001100011111 h
b11001110011011110000001011011 g
b110000 f
b0 e
0d
b0 c
b0 b
1a
bx `
bx _
bx ^
bx ]
bx \
b0 [
xZ
xY
bx X
bx W
xV
bx U
xT
bx S
xR
bx Q
xP
xO
b1100111111001100000100101101010 N
b10000101101011100110011110111011 M
b1110010111100110110111000111100 L
b111010111101010100111110100101 K
b1111111010100100000111001010001 J
b10001100011010000000010110011011 I
b10101011110110011000001100011111 H
b11001110011011110000001011011 G
0F
0E
b0x0 D
0C
0B
0A
0@
b0 ?
b0 >
b0 =
bx <
bx ;
bx :
b0 9
b0 8
b0 7
b0 6
05
b0 4
b0 3
02
01
00
b0 /
0.
b0 -
0,
0+
x*
x)
bx (
x'
bx &
bx %
x$
x#
0"
0!
$end
#5000
b11001110011011110000001011011 5"
b1011011111000001100110100011001 4"
0O
b0 D
1P
0)
0T
b0 S
0#
0Z
b0 _
b0 ^
b0 ]
b0 \
b0 (
b0 :
b0 U
0'
0V
b0 Q
0*
0R
b0 %
b0 <
b0 X
0$
0Y
b0 &
b0 ;
b0 W
1!
1,
#10000
0!
0,
#15000
b11001110011011110000001011011 5"
b1011011111000001100110100011001 4"
1!
1,
#20000
0!
0,
#25000
b11001110011011110000001011011 5"
b1011011111000001100110100011001 4"
1A
1"
1!
1,
#30000
0!
0,
#35000
b111010011011111110011001100111 }
b1000100100001001101011100101 #"
b11001110001000001011010001111110 ~
b11111100001011100100110001100 w
b110101100001110010011100101011 !"
b11011010100000100111100110011001 2"
b110011001110110101000001001111 3"
b100111100110011001110110101000 1"
b11111101010001000011100101001001 ."
b1001111111010100010000111001010 0"
b10000111001010010011111110101000 /"
b11001110011011110000001011011 5"
b1011011111000001100110100011001 4"
b10111011011001111010111010000101 u
b10011011000001010110100010001100 z
b111100011011101111001101110010 v
b11111100000111101100110101011 {
b10100101010011111111010100111010 x
b10110000111011011011110111010000 $"
b1011011111000001100110100011001 |
b1101010000010011110011001100111 t
b1010001000011100101001001111111 y
1!
1,
#40000
0!
0,
#45000
b11001110011011110000001011011 5"
b1011011111000001100110100011001 4"
1!
1,
#50000
0!
0,
#55000
b11001110011011110000001011011 5"
b1011011111000001100110100011001 4"
b11000000000000000000000000 F"
b11000000000000000000000000 o
b11000000000000000000000000 6"
b1 L"
11
b1111 4
b1111 >
b11 ?
b11 b
b11 3
b11 =
15
b0 O"
10
b0 Q"
b0 P"
b11 N"
b0 M"
1!
1,
#60000
0!
0,
#65000
1C
b11001110011011110000001011011 5"
b1011011111000001100110100011001 4"
0P
1)
1T
1#
1Z
1!
1,
#70000
0!
0,
#75000
b0 !"
b0 ~
b0 w
b0 #"
b0 }
b0 ."
b0 0"
b0 /"
b0 2"
b0 3"
b0 1"
b0 y
b0 t
b0 $"
b0 |
b0 x
b0 {
b0 v
b0 z
b0 u
b11 [
0A
b11001110011011110000001011011 5"
b1011011111000001100110100011001 4"
b10 D
1'
1V
b11 \
0#
0Z
0)
0T
b0 F"
b0 o
b0 6"
0C
b0 4
b0 >
b0 ?
b0 b
b0 3
b0 =
05
b1 Q"
00
b1 P"
b100 `
1!
1,
#80000
0!
0,
#85000
b10 [
1A
b11001110011011110000001011011 5"
b1011011111000001100110100011001 4"
1P
b10 \
0'
0V
01
1!
1,
#90000
0!
0,
#95000
b110101100001110010011100101011 !"
b11001110001000001011010001111110 ~
b11111100001011100100110001100 w
b1000100100001001101011100101 #"
b111010011011111110011001100111 }
b11001110011011110000001011011 5"
b1011011111000001100110100011001 4"
b11111101010001000011100101001001 ."
b1001111111010100010000111001010 0"
b10000111001010010011111110101000 /"
b11011010100000100111100110011001 2"
b110011001110110101000001001111 3"
b100111100110011001110110101000 1"
b1010001000011100101001001111111 y
b1101010000010011110011001100111 t
b10110000111011011011110111010000 $"
b1011011111000001100110100011001 |
b10100101010011111111010100111010 x
b11111100000111101100110101011 {
b111100011011101111001101110010 v
b10011011000001010110100010001100 z
b10111011011001111010111010000101 u
b1100010001110010011010001100100 F"
b1100010001110010011010001100100 o
b1100010001110010011010001100100 6"
11
b1111 4
b1111 >
b1100100001101000011100101100010 ?
b1100100001101000011100101100010 b
b1100100001101000011100101100010 3
b1100100001101000011100101100010 =
15
b1000000 O"
b1000000 /
b1000000 8
10
b0 Q"
b0 P"
b1100100001101000011100101100010 N"
b10000 M"
1!
1,
#100000
0!
0,
#105000
0a
17"
b1 s
1@
1C
b11001110011011110000001011011 5"
b1011011111000001100110100011001 4"
1O
0P
1)
1T
b1000000 S
1#
1Z
1!
1,
#110000
0!
0,
#115000
b110001 f
b110001 G"
b11001110011011110000001011011 5"
b1011011111000001100110100011001 4"
b1 r
b1 q
1'
1V
0#
0Z
0)
0T
0a
07"
b1 s
b0 F"
0@
b0 o
b0 6"
0C
b0 4
b0 >
b0 ?
b0 b
b0 3
b0 =
05
b1 Q"
b0 /
b0 8
00
b1 P"
1!
1,
#120000
0!
0,
#125000
b11001110011011110000001011011 5"
b1011011111000001100110100011001 4"
1P
0'
0V
01
1!
1,
#130000
0!
0,
#135000
b11001110011011110000001011011 5"
b1011011111000001100110100011001 4"
b110010001101110110001000111001 F"
b110010001101110110001000111001 o
b110010001101110110001000111001 6"
11
b1111 4
b1111 >
b111001011000100011011100110010 ?
b111001011000100011011100110010 b
b111001011000100011011100110010 3
b111001011000100011011100110010 =
15
b1000000 /
b1000000 8
10
b0 Q"
b0 P"
b111001011000100011011100110010 N"
1!
1,
#140000
0!
0,
#145000
17"
1@
1C
b11001110011011110000001011011 5"
b1011011111000001100110100011001 4"
0P
1)
1T
1#
1Z
1!
1,
#150000
0!
0,
#155000
b10111100101001100011001100010110 ?"
b10111100101001100011001100010110 9"
b110010 f
b110010 G"
b11001110011011110000001011011 5"
b1011011111000001100110100011001 4"
b10011010001100100011000100011100 A"
b100110100011001000110001000111 @"
b110001000111001001101 B"
b10 q
b1100010001110010011010001100100 <"
1'
1V
0#
0Z
0)
0T
07"
b0 F"
0@
b0 o
b0 6"
0C
b0 4
b0 >
b0 ?
b0 b
b0 3
b0 =
05
b1 Q"
b0 /
b0 8
00
b1 P"
1!
1,
#160000
0!
0,
#165000
b11001110011011110000001011011 5"
b1011011111000001100110100011001 4"
1P
0'
0V
01
1!
1,
#170000
0!
0,
#175000
b11001110011011110000001011011 5"
b1011011111000001100110100011001 4"
b111001001100110011010001100100 F"
b111001001100110011010001100100 o
b111001001100110011010001100100 6"
11
b1111 4
b1111 >
b1100100001101000011001100111001 ?
b1100100001101000011001100111001 b
b1100100001101000011001100111001 3
b1100100001101000011001100111001 =
15
b1000000 /
b1000000 8
10
b0 Q"
b0 P"
b1100100001101000011001100111001 N"
1!
1,
#180000
0!
0,
#185000
17"
1@
1C
b11001110011011110000001011011 5"
b1011011111000001100110100011001 4"
0P
1)
1T
1#
1Z
1!
1,
#190000
0!
0,
#195000
b1011101010101110011001010000101 ?"
b1011101010101110011001010000101 9"
b110011 f
b110011 G"
b11001110011011110000001011011 5"
b1011011111000001100110100011001 4"
b10110001000111001001100100011011 A"
b11101100010001110010011001000110 @"
b11001000110111011000 B"
b11 q
b110010001101110110001000111001 <"
1'
1V
0#
0Z
0)
0T
07"
b0 F"
0@
b0 o
b0 6"
0C
b0 4
b0 >
b0 ?
b0 b
b0 3
b0 =
05
b1 Q"
b0 /
b0 8
00
b1 P"
1!
1,
#200000
0!
0,
#205000
b11001110011011110000001011011 5"
b1011011111000001100110100011001 4"
1P
0'
0V
01
1!
1,
#210000
0!
0,
#215000
b11001110011011110000001011011 5"
b1011011111000001100110100011001 4"
b110011011001010011000000111000 F"
b110011011001010011000000111000 o
b110011011001010011000000111000 6"
11
b1111 4
b1111 >
b111000001100000110010100110011 ?
b111000001100000110010100110011 b
b111000001100000110010100110011 3
b111000001100000110010100110011 =
15
b1000000 /
b1000000 8
10
b0 Q"
b0 P"
b111000001100000110010100110011 N"
1!
1,
#220000
0!
0,
#225000
17"
1@
1C
b11001110011011110000001011011 5"
b1011011111000001100110100011001 4"
0P
1)
1T
1#
1Z
1!
1,
#230000
0!
0,
#235000
b11111100101100001101011101110010 ?"
b11111100101100001101011101110010 9"
b110100 f
b110100 G"
b11001110011011110000001011011 5"
b1011011111000001100110100011001 4"
b10011010001100100001110010011001 A"
b1100110100011001000011100100110 @"
b11100100110011001101 B"
b100 q
b111001001100110011010001100100 <"
1'
1V
0#
0Z
0)
0T
07"
b0 F"
0@
b0 o
b0 6"
0C
b0 4
b0 >
b0 ?
b0 b
b0 3
b0 =
05
b1 Q"
b0 /
b0 8
00
b1 P"
1!
1,
#240000
0!
0,
#245000
b11001110011011110000001011011 5"
b1011011111000001100110100011001 4"
1P
0'
0V
01
1!
1,
#250000
0!
0,
#255000
b11001110011011110000001011011 5"
b1011011111000001100110100011001 4"
b1100001001101010011001001100101 F"
b1100001001101010011001001100101 o
b1100001001101010011001001100101 6"
11
b1111 4
b1111 >
b1100101001100100011010101100001 ?
b1100101001100100011010101100001 b
b1100101001100100011010101100001 3
b1100101001100100011010101100001 =
15
b1000000 /
b1000000 8
10
b0 Q"
b0 P"
b1100101001100100011010101100001 N"
1!
1,
#260000
0!
0,
#265000
17"
1@
1C
b11001110011011110000001011011 5"
b1011011111000001100110100011001 4"
0P
1)
1T
1#
1Z
1!
1,
#270000
0!
0,
#275000
b111110000101111100011010010010 ?"
b111110000101111100011010010010 9"
b110101 f
b110101 G"
b11001110011011110000001011011 5"
b1011011111000001100110100011001 4"
b10011000000111000001100110110010 A"
b10100110000001110000011001101100 @"
b11001101100101001100 B"
b101 q
b110011011001010011000000111000 <"
1'
1V
0#
0Z
0)
0T
07"
b0 F"
0@
b0 o
b0 6"
0C
b0 4
b0 >
b0 ?
b0 b
b0 3
b0 =
05
b1 Q"
b0 /
b0 8
00
b1 P"
1!
1,
#280000
0!
0,
#285000
b11001110011011110000001011011 5"
b1011011111000001100110100011001 4"
1P
0'
0V
01
1!
1,
#290000
0!
0,
#295000
b11001110011011110000001011011 5"
b1011011111000001100110100011001 4"
b110101001100100110010000110111 F"
b110101001100100110010000110111 o
b110101001100100110010000110111 6"
11
b1111 4
b1111 >
b110111011001000011001000110101 ?
b110111011001000011001000110101 b
b110111011001000011001000110101 3
b110111011001000011001000110101 =
15
b1000000 /
b1000000 8
10
b0 Q"
b0 P"
b110111011001000011001000110101 N"
1!
1,
#300000
0!
0,
#305000
17"
1@
1C
b11001110011011110000001011011 5"
b1011011111000001100110100011001 4"
0P
1)
1T
1#
1Z
1!
1,
#310000
0!
0,
#315000
b111111011001100101000111110000 ?"
b111111011001100101000111110000 9"
b110110 f
b110110 G"
b11001110011011110000001011011 5"
b1011011111000001100110100011001 4"
b10011001001100101011000010011010 A"
b10100110010011001010110000100110 @"
b110000100110101001100 B"
b110 q
b1100001001101010011001001100101 <"
1'
1V
0#
0Z
0)
0T
07"
b0 F"
0@
b0 o
b0 6"
0C
b0 4
b0 >
b0 ?
b0 b
b0 3
b0 =
05
b1 Q"
b0 /
b0 8
00
b1 P"
1!
1,
#320000
0!
0,
#325000
b11001110011011110000001011011 5"
b1011011111000001100110100011001 4"
1P
0'
0V
01
1!
1,
#330000
0!
0,
#335000
b11001110011011110000001011011 5"
b1011011111000001100110100011001 4"
b1100100011000010011011101100100 F"
b1100100011000010011011101100100 o
b1100100011000010011011101100100 6"
11
b1111 4
b1111 >
b1100100001101110110000101100100 ?
b1100100001101110110000101100100 b
b1100100001101110110000101100100 3
b1100100001101110110000101100100 =
15
b1000000 /
b1000000 8
10
b0 Q"
b0 P"
b1100100001101110110000101100100 N"
1!
1,
#340000
0!
0,
#345000
17"
1@
1C
b11001110011011110000001011011 5"
b1011011111000001100110100011001 4"
0P
1)
1T
1#
1Z
1!
1,
#350000
0!
0,
#355000
b1111110100100000011000010100110 9"
b110111 f
b110111 G"
b11001110011011110000001011011 5"
b1011011111000001100110100011001 4"
b110010000110111001101010011001 A"
b1001100100001101110011010100110 @"
b11010100110010011001 B"
b111 q
b110101001100100110010000110111 <"
b11100000110010010110010100001010 ?"
b1100010001110010011010001100100 ="
1'
1V
0#
0Z
0)
0T
07"
b0 F"
0@
b0 o
b0 6"
0C
b0 4
b0 >
b0 ?
b0 b
b0 3
b0 =
05
b1 Q"
b0 /
b0 8
00
b1 P"
1!
1,
#360000
0!
0,
#365000
b11001110011011110000001011011 5"
b1011011111000001100110100011001 4"
1P
0'
0V
01
1!
1,
#370000
0!
0,
#375000
b11001110011011110000001011011 5"
b1011011111000001100110100011001 4"
b1100001011000100110011001100001 F"
b1100001011000100110011001100001 o
b1100001011000100110011001100001 6"
11
b1111 4
b1111 >
b1100001011001100110001001100001 ?
b1100001011001100110001001100001 b
b1100001011001100110001001100001 3
b1100001011001100110001001100001 =
15
b1000000 /
b1000000 8
10
b0 Q"
b0 P"
b1100001011001100110001001100001 N"
1!
1,
#380000
0!
0,
#385000
17"
1@
1C
b11001110011011110000001011011 5"
b1011011111000001100110100011001 4"
0P
1)
1T
1#
1Z
1!
1,
#390000
0!
0,
#395000
b10111101010001111010011011110001 9"
b111000 f
b111000 G"
b11001110011011110000001011011 5"
b1011011111000001100110100011001 4"
b10011011101100100011001000110000 A"
b100110111011001000110010001100 @"
b110010001100001001101 B"
b1000 q
b1100100011000010011011101100100 <"
b11101111011111110000100100101010 ?"
b110010001101110110001000111001 ="
1'
1V
0#
0Z
0)
0T
07"
b0 F"
0@
b0 o
b0 6"
0C
b0 4
b0 >
b0 ?
b0 b
b0 3
b0 =
05
b1 Q"
b0 /
b0 8
00
b1 P"
1!
1,
#400000
0!
0,
#405000
b11001110011011110000001011011 5"
b1011011111000001100110100011001 4"
1P
0'
0V
01
1!
1,
#410000
0!
0,
#415000
b11001110011011110000001011011 5"
b1011011111000001100110100011001 4"
b1100011001101000011100000110100 F"
b1100011001101000011100000110100 o
b1100011001101000011100000110100 6"
11
b1111 4
b1111 >
b110100001110000011010001100011 ?
b110100001110000011010001100011 b
b110100001110000011010001100011 3
b110100001110000011010001100011 =
15
b1000000 /
b1000000 8
10
b0 Q"
b0 P"
b110100001110000011010001100011 N"
1!
1,
#420000
0!
0,
#425000
17"
1@
1C
b11001110011011110000001011011 5"
b1011011111000001100110100011001 4"
0P
1)
1T
1#
1Z
1!
1,
#430000
0!
0,
#435000
b1111111111001001100010000000100 9"
b111001 f
b111001 G"
b11001110011011110000001011011 5"
b1011011111000001100110100011001 4"
b110011001100001011000010110001 A"
b1001100110011000010110000101100 @"
b110000101100010011001 B"
b1001 q
b1100001011000100110011001100001 <"
b10111001000101111111100001101000 ?"
b111001001100110011010001100100 ="
1'
1V
0#
0Z
0)
0T
07"
b0 F"
0@
b0 o
b0 6"
0C
b0 4
b0 >
b0 ?
b0 b
b0 3
b0 =
05
b1 Q"
b0 /
b0 8
00
b1 P"
1!
1,
#440000
0!
0,
#445000
b11001110011011110000001011011 5"
b1011011111000001100110100011001 4"
1P
0'
0V
01
1!
1,
#450000
0!
0,
#455000
b11001110011011110000001011011 5"
b1011011111000001100110100011001 4"
b1100101011001100110010100110011 F"
b1100101011001100110010100110011 o
b1100101011001100110010100110011 6"
11
b1111 4
b1111 >
b110011011001010110011001100101 ?
b110011011001010110011001100101 b
b110011011001010110011001100101 3
b110011011001010110011001100101 =
15
b1000000 /
b1000000 8
10
b0 Q"
b0 P"
b110011011001010110011001100101 N"
1!
1,
#460000
0!
0,
#465000
17"
1@
1C
b11001110011011110000001011011 5"
b1011011111000001100110100011001 4"
0P
1)
1T
1#
1Z
1!
1,
#470000
0!
0,
#475000
b10011011000001000111000011110010 9"
b111010 f
b111010 G"
b11001110011011110000001011011 5"
b1011011111000001100110100011001 4"
b11100000110100011000110011010 A"
b10000111000001101000110001100110 @"
b110001100110100001110 B"
b1010 q
b1100011001101000011100000110100 <"
b11001110011010011010000100101010 ?"
b110011011001010011000000111000 ="
1'
1V
0#
0Z
0)
0T
07"
b0 F"
0@
b0 o
b0 6"
0C
b0 4
b0 >
b0 ?
b0 b
b0 3
b0 =
05
b1 Q"
b0 /
b0 8
00
b1 P"
1!
1,
#480000
0!
0,
#485000
b11001110011011110000001011011 5"
b1011011111000001100110100011001 4"
1P
0'
0V
01
1!
1,
#490000
0!
0,
#495000
b11001110011011110000001011011 5"
b1011011111000001100110100011001 4"
b110111011000010011010100110011 F"
b110111011000010011010100110011 o
b110111011000010011010100110011 6"
11
b1111 4
b1111 >
b110011001101010110000100110111 ?
b110011001101010110000100110111 b
b110011001101010110000100110111 3
b110011001101010110000100110111 =
15
b1000000 /
b1000000 8
10
b0 Q"
b0 P"
b110011001101010110000100110111 N"
1!
1,
#500000
0!
0,
#505000
17"
1@
1C
b11001110011011110000001011011 5"
b1011011111000001100110100011001 4"
0P
1)
1T
1#
1Z
1!
1,
#510000
0!
0,
#515000
b11111110001001101000011110000110 9"
b111011 f
b111011 G"
b11001110011011110000001011011 5"
b1011011111000001100110100011001 4"
b110010100110011011001010110011 A"
b11001100101001100110110010101100 @"
b110010101100110011001 B"
b1011 q
b1100101011001100110010100110011 <"
b1011111010110111011100111101011 ?"
b1100001001101010011001001100101 ="
1'
1V
0#
0Z
0)
0T
07"
b0 F"
0@
b0 o
b0 6"
0C
b0 4
b0 >
b0 ?
b0 b
b0 3
b0 =
05
b1 Q"
b0 /
b0 8
00
b1 P"
1!
1,
#520000
0!
0,
#525000
b11001110011011110000001011011 5"
b1011011111000001100110100011001 4"
1P
0'
0V
01
1!
1,
#530000
0!
0,
#535000
b11001110011011110000001011011 5"
b1011011111000001100110100011001 4"
b111000001100000110010101100101 F"
b111000001100000110010101100101 o
b111000001100000110010101100101 6"
11
b1111 4
b1111 >
b1100101011001010011000000111000 ?
b1100101011001010011000000111000 b
b1100101011001010011000000111000 3
b1100101011001010011000000111000 =
15
b1000000 /
b1000000 8
10
b0 Q"
b0 P"
b1100101011001010011000000111000 N"
1!
1,
#540000
0!
0,
#545000
17"
1@
1C
b11001110011011110000001011011 5"
b1011011111000001100110100011001 4"
0P
1)
1T
1#
1Z
1!
1,
#550000
0!
0,
#555000
b10111100001100100010010100010001 9"
b111100 f
b111100 G"
b11001110011011110000001011011 5"
b1011011111000001100110100011001 4"
b10011010100110011001101110110000 A"
b100110101001100110011011101100 @"
b11011101100001001101 B"
b1100 q
b110111011000010011010100110011 <"
b11110001011001001000100101001000 ?"
b110101001100100110010000110111 ="
1'
1V
0#
0Z
0)
0T
07"
b0 F"
0@
b0 o
b0 6"
0C
b0 4
b0 >
b0 ?
b0 b
b0 3
b0 =
05
b1 Q"
b0 /
b0 8
00
b1 P"
1!
1,
#560000
0!
0,
#565000
b11001110011011110000001011011 5"
b1011011111000001100110100011001 4"
1P
0'
0V
01
1!
1,
#570000
0!
0,
#575000
b11001110011011110000001011011 5"
b1011011111000001100110100011001 4"
b111001001100000011100000111000 F"
b111001001100000011100000111000 o
b111001001100000011100000111000 6"
11
b1111 4
b1111 >
b111000001110000011000000111001 ?
b111000001110000011000000111001 b
b111000001110000011000000111001 3
b111000001110000011000000111001 =
15
b1000000 /
b1000000 8
10
b0 Q"
b0 P"
b111000001110000011000000111001 N"
1!
1,
#580000
0!
0,
#585000
17"
1@
1C
b11001110011011110000001011011 5"
b1011011111000001100110100011001 4"
0P
1)
1T
1#
1Z
1!
1,
#590000
0!
0,
#595000
b111110000100000011011100000111 9"
b111101 f
b111101 G"
b11001110011011110000001011011 5"
b1011011111000001100110100011001 4"
b110010101100101001110000011000 A"
b1100101011001010011100000110 @"
b11100000110000011001 B"
b1101 q
b111000001100000110010101100101 <"
b10100010011100010110111001101011 ?"
b1100100011000010011011101100100 ="
1'
1V
0#
0Z
0)
0T
07"
b0 F"
0@
b0 o
b0 6"
0C
b0 4
b0 >
b0 ?
b0 b
b0 3
b0 =
05
b1 Q"
b0 /
b0 8
00
b1 P"
1!
1,
#600000
0!
0,
#605000
b11001110011011110000001011011 5"
b1011011111000001100110100011001 4"
1P
0'
0V
01
1!
1,
#610000
0!
0,
